Timestamp;X;Y;ID
1620839362.1161869;233.0;396.0;120
1620839363.441525;252.0;401.0;120
1620839364.7600436;253.0;402.0;120
1620839366.0469854;253.0;402.0;120
1620839367.3644898;253.0;402.0;120
1620839368.6670313;253.0;402.0;120
1620839369.9017832;253.0;402.0;120
1620839371.1633968;253.0;402.0;120
1620839372.450507;253.0;402.0;120
1620839373.722261;253.0;402.0;120
1620839375.0099497;253.0;402.0;120
1620839376.313175;253.0;402.0;120
1620839377.6119063;253.0;402.0;120
1620839378.9302194;253.0;402.0;120
1620839380.2803743;253.0;402.0;120
1620839381.5053403;253.0;402.0;120
1620839382.7757807;253.0;402.0;120
1620839384.0783603;253.0;402.0;120
1620839385.3231375;253.0;402.0;120
1620839386.642059;253.0;402.0;120
1620839387.9306178;253.0;402.0;120
1620839389.191946;253.0;402.0;120
1620839390.4727302;253.0;402.0;120
1620839391.797134;253.0;402.0;120
1620839393.0629857;253.0;402.0;120
1620839394.3349898;253.0;402.0;120
1620839395.6376271;253.0;402.0;120
1620839396.8719692;253.0;402.0;120
1620839398.1958299;253.0;402.0;120
1620839399.445385;253.0;402.0;120
1620839400.7330751;253.0;402.0;120
1620839402.015361;253.0;402.0;120
1620839403.2692873;253.0;402.0;120
1620839404.5297334;253.0;402.0;120
1620839405.8015802;253.0;402.0;120
1620839407.0894244;253.0;402.0;120
1620839408.3238468;253.0;402.0;120
1620839409.5959356;253.0;402.0;120
1620839410.9182365;253.0;402.0;120
1620839412.2042682;253.0;402.0;120
1620839413.505107;253.0;402.0;120
1620839414.807304;253.0;402.0;120
1620839416.0487642;253.0;402.0;120
1620839417.2661326;253.0;402.0;120
1620839418.4687543;253.0;402.0;120
1620839419.7635424;253.0;402.0;120
1620839421.0663395;253.0;402.0;120
1620839422.3162227;253.0;402.0;120
1620839423.5715773;253.0;402.0;120
1620839424.8586595;253.0;402.0;120
1620839426.1249354;253.0;402.0;120
1620839427.4081624;253.0;402.0;120
1620839428.7110918;253.0;402.0;120
1620839429.9988124;253.0;402.0;120
1620839431.2554224;253.0;402.0;120
1620839432.5206323;253.0;402.0;120
1620839433.8745909;253.0;402.0;120
1620839435.123546;253.0;402.0;120
1620839436.366591;253.0;402.0;120
1620839437.616646;253.0;402.0;120
1620839438.8728685;253.0;402.0;120
1620839440.122552;253.0;402.0;120
1620839441.4217882;253.0;402.0;120
1620839442.6894495;253.0;402.0;120
1620839443.9452906;253.0;402.0;120
1620839445.210678;253.0;402.0;120
1620839446.5357454;253.0;402.0;120
1620839447.8440003;253.0;402.0;120
1620839449.126108;253.0;402.0;120
1620839450.3628488;253.0;402.0;120
1620839451.5773785;253.0;402.0;120
1620839452.8195155;253.0;402.0;120
1620839454.063126;253.0;402.0;120
1620839455.311147;253.0;402.0;120
1620839456.5549405;253.0;402.0;120
1620839457.85377;253.0;402.0;120
1620839459.0568025;253.0;402.0;120
1620839460.3283339;253.0;402.0;120
1620839461.531005;253.0;402.0;120
1620839462.8202374;253.0;402.0;120
1620839464.029798;253.0;402.0;120
1620839465.279419;253.0;402.0;120
1620839466.4743757;253.0;402.0;120
1620839467.777328;253.0;402.0;120
1620839469.0492089;252.0;400.0;120
1620839470.2651825;253.0;399.0;120
1620839471.49189;254.0;395.0;120
1620839472.794071;253.0;392.0;120
1620839474.033582;252.0;391.0;120
1620839475.2679217;250.0;389.0;120
1620839476.493123;252.0;389.0;120
1620839477.7317417;251.0;387.0;120
1620839479.0343952;254.0;386.0;120
1620839480.3394377;253.0;385.0;120
1620839481.5639324;253.0;383.0;120
1620839482.8409216;252.0;380.0;120
1620839484.139114;252.0;378.0;120
1620839485.3856165;253.0;377.0;120
1620839486.5918918;253.0;375.0;120
1620839487.8564842;252.0;373.0;120
1620839489.0979435;252.0;372.0;120
1620839490.3495867;251.0;369.0;120
1620839491.5434072;255.0;364.0;120
1620839492.8104854;255.0;363.0;120
1620839494.0243368;255.0;363.0;120
1620839495.3092003;254.0;360.0;120
1620839496.5080996;254.0;360.0;120
1620839497.78779;253.0;358.0;120
1620839499.054934;255.0;357.0;120
1620839500.2890606;255.0;356.0;120
1620839501.4942675;254.0;353.0;120
1620839502.7103646;255.0;352.0;120
1620839503.9554014;254.0;351.0;120
1620839505.158088;258.0;350.0;120
1620839506.451633;257.0;347.0;120
1620839507.7856326;257.0;345.0;120
1620839509.0613232;257.0;345.0;120
1620839510.524965;257.0;342.0;120
1620839511.7691386;258.0;339.0;120
1620839513.0244684;258.0;338.0;120
1620839514.248213;258.0;337.0;120
1620839515.4612925;258.0;337.0;120
1620839516.6835167;257.0;333.0;120
1620839517.9406981;257.0;332.0;120
1620839519.208038;257.0;330.0;120
1620839520.4421268;255.0;329.0;120
1620839521.8392718;255.0;329.0;120
1620839523.057678;253.0;326.0;120
1620839524.3070188;253.0;325.0;120
1620839525.4986823;253.0;325.0;120
1620839526.7365642;252.0;323.0;120
1620839527.9707172;252.0;323.0;120
1620839529.2298439;252.0;321.0;120
1620839530.4876087;251.0;319.0;120
1620839531.735155;251.0;318.0;120
1620839533.011804;249.0;317.0;120
1620839534.232822;250.0;316.0;120
1620839535.462267;251.0;315.0;120
1620839536.7058413;251.0;315.0;120
1620839537.9549787;251.0;315.0;120
1620839539.16285;251.0;315.0;120
1620839540.423809;262.0;312.0;120
1620839541.6571414;261.0;311.0;120
1620839542.9239306;262.0;310.0;120
1620839544.176113;263.0;310.0;120
1620839545.3999155;263.0;309.0;120
1620839546.6653702;263.0;309.0;120
1620839547.9266381;263.0;308.0;120
1620839549.1767719;264.0;307.0;120
1620839550.4226723;264.0;307.0;120
1620839551.7380428;264.0;307.0;120
1620839552.989347;264.0;307.0;120
1620839554.208097;263.0;305.0;120
1620839555.3922024;264.0;304.0;120
1620839556.626377;264.0;304.0;120
1620839557.8194673;263.0;302.0;120
1620839559.0121233;264.0;302.0;120
1620839560.2148335;264.0;301.0;120
1620839561.50216;264.0;301.0;120
1620839562.7677941;265.0;301.0;120
1620839564.0242238;264.0;299.0;120
1620839565.28988;263.0;296.0;120
1620839566.547852;260.0;293.0;120
1620839567.8252552;260.0;292.0;120
1620839569.1129746;260.0;289.0;120
1620839570.3609462;259.0;287.0;120
1620839571.5864794;259.0;285.0;120
1620839572.822731;259.0;284.0;120
1620839574.1079962;256.0;281.0;120
1620839575.353647;259.0;280.0;120
1620839576.547983;257.0;279.0;120
1620839577.823957;256.0;277.0;120
1620839579.0196977;255.0;275.0;120
1620839580.2491248;254.0;274.0;120
1620839581.462212;254.0;273.0;120
1620839582.700623;254.0;272.0;120
1620839583.9816608;254.0;272.0;120
1620839585.2258894;254.0;272.0;120
1620839586.4445274;254.0;268.0;120
1620839587.7196162;254.0;268.0;120
1620839588.9837518;255.0;268.0;120
1620839590.2080467;253.0;264.0;120
1620839591.4069748;254.0;265.0;120
1620839592.5932555;253.0;265.0;120
1620839593.8683846;253.0;264.0;120
1620839595.108021;254.0;265.0;120
1620839596.358701;253.0;264.0;120
1620839597.577414;253.0;262.0;120
1620839598.885958;250.0;260.0;120
1620839600.2113378;269.0;240.0;120
1620839603.8175216;288.0;220.0;120
1620839605.033805;307.0;200.0;120
1620839606.2879949;326.0;180.0;120
1620839607.5623343;345.0;160.0;120
1620839608.8708956;364.0;140.0;120
1620839610.1580267;383.0;120.0;120
1620839611.3767457;402.0;100.0;120
1620839612.5870774;421.0;80.0;120
1620839613.8389773;440.0;60.0;120
1620839615.1038952;459.0;40.0;120
1620839616.358844;478.0;20.0;120
1620839617.6016326;497.0;0.0;120
1620839618.8837175;499.0;0.0;120
1620839620.1505933;499.0;0.0;120
1620839621.3673143;499.0;0.0;120
1620839622.5857852;499.0;0.0;120
1620839623.8399937;499.0;0.0;120
1620839625.0933917;499.0;0.0;120
1620839626.3890593;499.0;0.0;120
1620839627.6231232;499.0;0.0;120
1620839628.9579537;499.0;0.0;120
1620839630.198691;499.0;0.0;120
1620839631.401538;499.0;0.0;120
1620839632.6352973;499.0;0.0;120
1620839633.9024081;499.0;0.0;120
1620839635.1463513;499.0;0.0;120
1620839636.3646646;499.0;0.0;120
1620839637.6280189;499.0;0.0;120
1620839638.9052389;499.0;0.0;120
1620839640.131677;499.0;0.0;120
1620839641.389036;499.0;0.0;120
1620839642.5920274;499.0;0.0;120
1620839643.8481803;499.0;0.0;120
1620839645.1047127;499.0;0.0;120
1620839646.3701587;499.0;0.0;120
1620839647.6288903;499.0;0.0;120
1620839648.9012392;499.0;0.0;120
1620839650.1853645;499.0;0.0;120
1620839651.4321578;499.0;0.0;120
1620839652.6567414;499.0;0.0;120
1620839653.949304;499.0;0.0;120
1620839655.1838245;499.0;0.0;120
1620839656.4715993;499.0;0.0;120
1620839657.7059162;499.0;0.0;120
1620839658.9351335;499.0;0.0;120
1620839660.2639167;499.0;0.0;120
1620839661.6612885;499.0;0.0;120
1620839662.9470744;499.0;0.0;120
1620839664.216819;499.0;0.0;120
1620839665.4446146;499.0;0.0;120
1620839666.6639228;499.0;0.0;120
1620839668.0050938;499.0;0.0;120
1620839669.260513;499.0;0.0;120
1620839670.535064;499.0;0.0;120
1620839671.8166642;499.0;0.0;120
1620839673.026544;499.0;0.0;120
1620839674.2296138;499.0;0.0;120
1620839675.4858227;499.0;0.0;120
1620839676.754918;499.0;0.0;120
1620839678.0574505;499.0;0.0;120
1620839679.3385823;499.0;0.0;120
1620839680.563701;499.0;0.0;120
1620839681.7505558;499.0;0.0;120
1620839682.9961107;499.0;0.0;120
1620839684.2168212;499.0;0.0;120
1620839685.4134102;499.0;0.0;120
1620839686.60696;499.0;0.0;120
1620839688.1417701;499.0;0.0;120
1620839689.457791;499.0;0.0;120
1620839690.7798333;499.0;0.0;120
1620839692.060795;499.0;0.0;120
1620839693.348567;499.0;0.0;120
1620839694.575811;499.0;0.0;120
1620839695.773441;499.0;0.0;120
1620839697.042756;499.0;0.0;120
1620839698.309384;499.0;0.0;120
1620839699.612409;499.0;0.0;120
1620839700.9608092;499.0;0.0;120
1620839702.1894221;499.0;0.0;120
1620839703.4077752;499.0;0.0;120
1620839704.6149771;499.0;0.0;120
1620839705.8500223;499.0;0.0;120
1620839707.130518;499.0;0.0;120
1620839708.3555026;499.0;0.0;120
1620839709.6529205;499.0;0.0;120
1620839710.904305;499.0;0.0;120
1620839712.1198447;499.0;0.0;120
1620839713.3849676;499.0;0.0;120
1620839714.5889418;499.0;0.0;120
1620839715.8133454;499.0;0.0;120
1620839717.0568752;499.0;0.0;120
1620839718.3167105;499.0;0.0;120
1620839719.6568942;499.0;0.0;120
1620839720.9301188;479.0;19.0;120
1620839722.147869;459.0;38.0;120
1620839723.3659573;478.0;18.0;120
1620839724.5732298;497.0;0.0;120
1620839725.804539;499.0;0.0;120
1620839727.033463;499.0;0.0;120
1620839728.326009;499.0;0.0;120
1620839729.5936618;499.0;0.0;120
1620839730.8861117;479.0;19.0;120
1620839732.1619375;459.0;38.0;120
1620839733.4132457;439.0;57.0;120
1620839734.6199925;419.0;76.0;120
1620839735.822465;399.0;95.0;120
1620839737.0683436;379.0;114.0;120
1620839738.3916116;359.0;133.0;120
1620839739.6632094;339.0;152.0;120
1620839740.9390109;319.0;171.0;120
1620839742.2031903;299.0;170.0;120
1620839743.4118931;279.0;171.0;120
1620839744.5941262;259.0;167.0;120
1620839745.818611;239.0;165.0;120
1620839747.0713427;230.0;162.0;120
1620839748.3589258;225.0;166.0;120
1620839749.6616988;231.0;161.0;120
1620839750.9382195;238.0;160.0;120
1620839752.1881351;240.0;160.0;120
1620839753.3905632;238.0;160.0;120
1620839754.6250386;256.0;165.0;120
1620839755.796298;255.0;165.0;120
1620839757.0508635;235.0;172.0;120
1620839758.337627;215.0;172.0;120
1620839759.5995824;201.0;172.0;120
1620839760.7922835;201.0;167.0;120
1620839762.1088252;214.0;170.0;120
1620839763.3742354;215.0;167.0;120
1620839764.5765505;227.0;168.0;120
1620839765.779156;227.0;166.0;120
1620839767.003571;220.0;169.0;120
1620839768.227784;223.0;167.0;120
1620839769.4460032;227.0;166.0;120
1620839770.7139485;233.0;166.0;120
1620839772.0315235;231.0;166.0;120
1620839773.3051465;231.0;167.0;120
1620839774.55448;233.0;167.0;120
1620839775.733121;231.0;167.0;120
1620839776.9774094;211.0;172.0;120
1620839778.2011077;196.0;172.0;120
1620839779.4140015;191.0;172.0;120
1620839780.6725054;176.0;174.0;120
1620839781.9446423;195.0;173.0;120
1620839783.2264357;175.0;185.0;120
1620839784.503068;179.0;186.0;120
1620839785.718464;192.0;180.0;120
1620839786.9832604;174.0;186.0;120
1620839788.1973374;193.0;184.0;120
1620839789.473864;173.0;198.0;120
1620839790.7439551;171.0;197.0;120
1620839792.015871;161.0;188.0;120
1620839793.3119688;157.0;189.0;120
1620839794.5248253;148.0;191.0;120
1620839795.7672708;167.0;181.0;120
1620839796.9977536;186.0;179.0;120
1620839798.2417808;192.0;179.0;120
1620839799.5411127;192.0;180.0;120
1620839800.8003316;172.0;188.0;120
1620839802.0787854;152.0;194.0;120
1620839803.3737593;153.0;190.0;120
1620839804.5821233;159.0;190.0;120
1620839805.7920532;148.0;187.0;120
1620839807.020105;145.0;183.0;120
1620839808.2643836;143.0;183.0;120
1620839809.541009;143.0;183.0;120
1620839810.7831447;147.0;176.0;120
1620839812.0886333;142.0;176.0;120
1620839813.3422885;146.0;175.0;120
1620839814.6087193;145.0;176.0;120
1620839815.8481557;145.0;176.0;120
1620839817.1143954;144.0;176.0;120
1620839818.4079382;144.0;176.0;120
1620839819.7040474;142.0;177.0;120
1620839820.918125;144.0;176.0;120
1620839822.211711;144.0;176.0;120
1620839823.5234675;144.0;176.0;120
1620839824.831403;142.0;177.0;120
1620839826.1134553;144.0;176.0;120
1620839827.4034622;144.0;176.0;120
1620839828.6702812;136.0;179.0;120
1620839829.97691;154.0;179.0;120
1620839831.2875233;173.0;171.0;120
1620839832.5160692;190.0;170.0;120
1620839833.750263;189.0;170.0;120
1620839834.9689233;169.0;183.0;120
1620839836.2319233;163.0;177.0;120
1620839837.5300186;161.0;178.0;120
1620839838.8049395;162.0;177.0;120
1620839840.1273553;161.0;178.0;120
1620839841.3641684;161.0;178.0;120
1620839842.548767;161.0;178.0;120
1620839843.7612607;161.0;178.0;120
1620839844.9644516;161.0;178.0;120
1620839846.2285266;151.0;177.0;120
1620839847.5191326;170.0;169.0;120
1620839848.828065;189.0;166.0;120
1620839850.0601187;169.0;169.0;120
1620839851.3044727;150.0;179.0;120
1620839852.5688233;163.0;170.0;120
1620839853.8387191;163.0;169.0;120
1620839855.1578088;182.0;168.0;120
1620839856.4603705;201.0;167.0;120
1620839857.7103932;204.0;167.0;120
1620839858.9356961;204.0;166.0;120
1620839860.152555;201.0;166.0;120
1620839861.364279;185.0;164.0;120
1620839862.5825138;182.0;163.0;120
1620839863.800667;197.0;164.0;120
1620839865.0931854;182.0;166.0;120
1620839866.4118714;201.0;160.0;120
1620839867.663157;195.0;162.0;120
1620839868.9193325;175.0;170.0;120
1620839870.1428516;163.0;177.0;120
1620839871.3585396;182.0;158.0;120
1620839872.5641983;201.0;158.0;120
1620839873.8236697;208.0;163.0;120
1620839875.0898488;198.0;167.0;120
1620839876.426207;213.0;165.0;120
1620839877.6599498;200.0;165.0;120
1620839878.8748267;219.0;161.0;120
1620839880.118702;238.0;163.0;120
1620839881.383494;223.0;169.0;120
1620839882.6071243;205.0;169.0;120
1620839883.8940384;210.0;171.0;120
1620839885.2090192;229.0;151.0;120
1620839886.4494505;248.0;131.0;120
1620839887.682358;237.0;150.0;120
1620839888.9262486;232.0;169.0;120
1620839890.1500933;251.0;149.0;120
1620839891.4031458;256.0;168.0;120
1620839892.6787796;254.0;169.0;120
1620839893.97607;261.0;172.0;120
1620839895.2376976;258.0;172.0;120
1620839896.5034902;238.0;180.0;120
1620839897.7323196;257.0;160.0;120
1620839898.95573;237.0;173.0;120
1620839900.2201564;226.0;174.0;120
1620839901.4928117;239.0;180.0;120
1620839902.7988324;258.0;160.0;120
1620839904.0061276;277.0;140.0;120
1620839905.276121;296.0;120.0;120
1620839906.5440931;315.0;100.0;120
1620839907.7783358;334.0;80.0;120
1620839909.01906;353.0;60.0;120
1620839910.41942;372.0;40.0;120
1620839911.6804202;391.0;20.0;120
1620839912.8972242;410.0;0.0;120
1620839914.1069808;429.0;0.0;120
1620839915.3861434;448.0;0.0;120
1620839916.6213598;467.0;0.0;120
1620839917.878257;486.0;0.0;120
1620839919.169431;499.0;0.0;120
1620839920.456973;499.0;0.0;120
1620839921.7128246;499.0;0.0;120
1620839922.9259415;499.0;0.0;120
1620839924.1616433;499.0;0.0;120
1620839925.3651013;499.0;0.0;120
1620839926.5815735;479.0;19.0;120
1620839927.8752937;459.0;38.0;120
1620839929.1630607;439.0;57.0;120
1620839930.5024915;419.0;76.0;120
1620839931.7427921;399.0;95.0;120
1620839932.9374208;379.0;114.0;120
1620839934.177025;359.0;133.0;120
1620839935.4524941;378.0;113.0;120
1620839936.778655;397.0;93.0;120
1620839938.0433207;416.0;73.0;120
1620839939.3355887;435.0;53.0;120
1620839940.5801747;454.0;33.0;120
1620839941.8365512;473.0;13.0;120
1620839943.1260054;492.0;0.0;120
1620839944.4199312;499.0;0.0;120
1620839945.6551745;499.0;0.0;120
1620839946.8839383;499.0;0.0;120
1620839948.1095607;499.0;0.0;120
1620839949.3572755;499.0;0.0;120
1620839950.5958126;499.0;0.0;120
1620839951.836352;499.0;0.0;120
1620839953.102014;499.0;0.0;120
1620839954.4400005;499.0;0.0;120
1620839955.705678;499.0;0.0;120
1620839956.9149714;499.0;0.0;120
1620839958.1937385;479.0;19.0;120
1620839959.4716058;498.0;0.0;120
1620839960.829281;499.0;0.0;120
1620839962.068619;499.0;0.0;120
1620839963.3583848;479.0;19.0;120
1620839964.6233509;459.0;38.0;120
1620839965.950909;439.0;57.0;120
1620839967.1814446;419.0;76.0;120
1620839968.4894984;399.0;95.0;120
1620839969.7182744;379.0;114.0;120
1620839970.9197326;359.0;133.0;120
1620839972.1866899;339.0;152.0;120
1620839973.4772449;319.0;171.0;120
1620839974.792138;307.0;187.0;120
1620839976.0235653;304.0;187.0;120
1620839977.236722;300.0;187.0;120
1620839978.493352;298.0;185.0;120
1620839979.7167928;290.0;181.0;120
1620839980.9401722;277.0;180.0;120
1620839982.1738148;275.0;182.0;120
1620839983.4402637;294.0;186.0;120
1620839984.758997;313.0;187.0;120
1620839985.98773;314.0;192.0;120
1620839987.2345438;313.0;192.0;120
1620839988.48931;309.0;191.0;120
1620839989.7402682;306.0;192.0;120
1620839991.0139441;303.0;191.0;120
1620839992.294516;297.0;187.0;120
1620839993.6727037;296.0;187.0;120
1620839994.9090157;284.0;183.0;120
1620839996.1117222;287.0;182.0;120
1620839997.346211;306.0;191.0;120
1620839998.6360574;325.0;198.0;120
1620839999.9371223;332.0;199.0;120
1620840001.184771;332.0;200.0;120
1620840002.512174;328.0;195.0;120
1620840003.754921;320.0;196.0;120
1620840004.9830244;314.0;195.0;120
1620840006.2293973;320.0;195.0;120
1620840007.5485663;321.0;196.0;120
1620840008.806758;322.0;195.0;120
1620840010.0881007;312.0;195.0;120
1620840011.3365965;304.0;191.0;120
1620840012.5509768;304.0;189.0;120
1620840013.8227518;300.0;185.0;120
1620840015.1384218;303.0;186.0;120
1620840016.4331434;304.0;186.0;120
1620840017.6909513;323.0;193.0;120
1620840018.9253883;342.0;202.0;120
1620840020.1824465;353.0;207.0;120
1620840021.4336245;360.0;210.0;120
1620840022.741927;360.0;210.0;120
1620840024.0093405;357.0;207.0;120
1620840025.2700915;359.0;209.0;120
1620840026.490688;357.0;208.0;120
1620840027.724543;361.0;208.0;120
1620840028.9586773;360.0;206.0;120
1620840030.199429;359.0;207.0;120
1620840031.5333436;352.0;206.0;120
1620840032.7933455;346.0;203.0;120
1620840034.0494642;346.0;202.0;120
1620840035.3030512;346.0;202.0;120
1620840036.5792873;346.0;202.0;120
1620840037.8379018;347.0;202.0;120
1620840039.1633182;347.0;202.0;120
1620840040.4284668;346.0;202.0;120
1620840041.675968;346.0;202.0;120
1620840042.9283156;346.0;202.0;120
1620840044.1685166;347.0;202.0;120
1620840045.4869082;346.0;202.0;120
1620840046.794731;346.0;202.0;120
1620840048.0523093;346.0;202.0;120
1620840049.2535646;347.0;202.0;120
1620840050.502501;346.0;202.0;120
1620840051.7901127;347.0;202.0;120
1620840053.1388152;347.0;202.0;120
1620840054.432867;345.0;202.0;120
1620840055.6511717;345.0;202.0;120
1620840056.8700051;357.0;209.0;120
1620840058.088642;337.0;195.0;120
1620840059.3496492;324.0;190.0;120
1620840060.612106;311.0;190.0;120
1620840061.9677627;311.0;191.0;120
1620840063.206148;330.0;193.0;120
1620840064.4543045;330.0;187.0;120
1620840065.7194262;349.0;194.0;120
1620840066.9603379;329.0;186.0;120
1620840068.2099986;325.0;178.0;120
1620840069.5481868;337.0;186.0;120
1620840070.8198426;327.0;178.0;120
1620840072.0472205;328.0;180.0;120
1620840073.2495651;347.0;189.0;120
1620840074.5044074;356.0;193.0;120
1620840075.7724342;356.0;194.0;120
1620840077.075714;356.0;193.0;120
1620840078.3622804;336.0;183.0;120
1620840079.652854;316.0;174.0;120
1620840080.9088602;327.0;178.0;120
1620840082.2063932;310.0;171.0;120
1620840083.5590508;324.0;179.0;120
1620840084.8474917;325.0;177.0;120
1620840086.04928;341.0;181.0;120
1620840087.2523968;349.0;186.0;120
1620840088.5026474;329.0;179.0;120
1620840089.7386053;309.0;171.0;120
1620840090.9719892;289.0;166.0;120
1620840092.2014983;303.0;169.0;120
1620840093.5626154;286.0;168.0;120
1620840094.8285997;297.0;168.0;120
1620840096.088596;312.0;169.0;120
1620840097.2898211;322.0;176.0;120
1620840098.5652134;341.0;156.0;120
1620840099.8682456;360.0;136.0;120
1620840101.1751473;379.0;116.0;120
1620840102.4641767;398.0;96.0;120
1620840103.6848745;417.0;76.0;120
1620840104.8891964;436.0;56.0;120
1620840106.078302;455.0;36.0;120
1620840107.2813697;474.0;16.0;120
1620840108.521985;493.0;0.0;120
1620840109.8243861;499.0;0.0;120
1620840111.1326778;499.0;0.0;120
1620840112.4815166;499.0;0.0;120
1620840113.9098618;499.0;0.0;120
1620840115.2190685;499.0;0.0;120
1620840116.580473;499.0;0.0;120
1620840117.9004216;499.0;0.0;120
1620840119.2038674;499.0;0.0;120
1620840120.5211875;499.0;0.0;120
1620840121.9669182;499.0;0.0;120
1620840123.3090186;499.0;0.0;120
1620840124.5901175;499.0;0.0;120
1620840125.9192882;499.0;0.0;120
1620840127.212293;499.0;0.0;120
1620840128.4465942;499.0;0.0;120
1620840129.711364;499.0;0.0;120
1620840130.96964;499.0;0.0;120
1620840132.2655146;499.0;0.0;120
1620840133.6180685;499.0;0.0;120
1620840134.8523188;499.0;0.0;120
1620840136.0820143;499.0;0.0;120
1620840137.3211188;499.0;0.0;120
1620840138.6057003;499.0;0.0;120
1620840139.9710364;499.0;0.0;120
1620840141.227195;479.0;19.0;120
1620840142.4660869;459.0;38.0;120
1620840143.6848204;439.0;57.0;120
1620840144.9252257;419.0;76.0;120
1620840146.2082036;399.0;95.0;120
1620840147.5000107;379.0;114.0;120
1620840148.8190596;359.0;133.0;120
1620840150.0778713;339.0;152.0;120
1620840151.3173814;358.0;132.0;120
1620840152.601052;377.0;112.0;120
1620840153.9463596;396.0;92.0;120
1620840155.223573;415.0;72.0;120
1620840156.4248855;434.0;52.0;120
1620840157.6595054;453.0;32.0;120
1620840158.9090858;472.0;12.0;120
1620840160.16561;491.0;0.0;120
1620840161.43285;499.0;0.0;120
1620840162.7772536;499.0;0.0;120
1620840164.0453382;499.0;0.0;120
1620840165.2784004;479.0;19.0;120
1620840166.5083046;498.0;0.0;120
1620840167.812452;499.0;0.0;120
1620840169.1309004;499.0;0.0;120
1620840170.3988583;499.0;0.0;120
1620840171.684642;499.0;0.0;120
1620840172.9560769;479.0;19.0;120
1620840174.2031846;498.0;0.0;120
1620840175.4956753;478.0;19.0;120
1620840176.798958;458.0;38.0;120
1620840178.0417626;438.0;57.0;120
1620840179.2860136;418.0;76.0;120
1620840180.6111515;398.0;95.0;120
1620840181.9559364;378.0;114.0;120
1620840183.2110758;358.0;133.0;120
1620840184.4134474;338.0;152.0;120
1620840185.6878433;318.0;171.0;120
1620840186.9744558;298.0;184.0;120
1620840188.268353;278.0;179.0;120
1620840189.570733;258.0;176.0;120
1620840190.8266783;238.0;173.0;120
1620840192.0444868;242.0;174.0;120
1620840193.2766316;254.0;172.0;120
1620840194.5265331;251.0;172.0;120
1620840195.8043723;240.0;173.0;120
1620840197.12731;230.0;173.0;120
1620840198.4016423;229.0;173.0;120
1620840199.6425314;223.0;171.0;120
1620840200.9231708;242.0;170.0;120
1620840202.181302;240.0;168.0;120
1620840203.4529204;240.0;168.0;120
1620840204.7872677;220.0;171.0;120
1620840206.0315735;200.0;172.0;120
1620840207.2346883;191.0;173.0;120
1620840208.4845226;189.0;171.0;120
1620840209.8138976;173.0;179.0;120
1620840211.1278756;183.0;174.0;120
1620840212.4025323;202.0;168.0;120
1620840213.6489124;182.0;176.0;120
1620840214.9053428;181.0;178.0;120
1620840216.19837;181.0;178.0;120
1620840217.4223661;181.0;178.0;120
1620840218.7633202;181.0;178.0;120
1620840220.0131376;181.0;178.0;120
1620840221.2509122;177.0;179.0;120
1620840222.4951625;186.0;175.0;120
1620840223.7997618;191.0;174.0;120
1620840225.1546855;210.0;172.0;120
1620840226.3976898;210.0;172.0;120
1620840227.625819;210.0;171.0;120
1620840228.861823;190.0;177.0;120
1620840230.0921307;170.0;181.0;120
1620840231.3417993;167.0;181.0;120
1620840232.6137254;147.0;189.0;120
1620840233.9615724;166.0;181.0;120
1620840235.1971838;165.0;184.0;120
1620840236.4014573;184.0;176.0;120
1620840237.6306462;168.0;183.0;120
1620840238.8557763;167.0;183.0;120
1620840240.136418;167.0;182.0;120
1620840241.4146874;156.0;186.0;120
1620840242.7272415;147.0;191.0;120
1620840243.9996836;152.0;186.0;120
1620840245.20855;159.0;184.0;120
1620840246.444881;155.0;186.0;120
1620840247.746376;154.0;186.0;120
1620840249.0325065;146.0;190.0;120
1620840250.3353233;143.0;191.0;120
1620840251.5918393;141.0;191.0;120
1620840252.857452;144.0;190.0;120
1620840254.1137035;148.0;188.0;120
1620840255.3563082;148.0;189.0;120
1620840256.6159058;158.0;181.0;120
1620840257.9880564;150.0;184.0;120
1620840259.217973;155.0;184.0;120
1620840260.511708;165.0;181.0;120
1620840261.8557107;184.0;171.0;120
1620840263.1682441;186.0;174.0;120
1620840264.381164;166.0;179.0;120
1620840265.6359897;167.0;179.0;120
1620840266.8704119;170.0;180.0;120
1620840268.1422863;162.0;182.0;120
1620840269.4295263;147.0;187.0;120
1620840270.7823684;147.0;188.0;120
1620840272.019199;166.0;178.0;120
1620840273.2380064;185.0;172.0;120
1620840274.4601462;204.0;170.0;120
1620840275.7041905;201.0;169.0;120
1620840277.018901;196.0;172.0;120
1620840278.3551526;194.0;172.0;120
1620840279.5737607;191.0;172.0;120
1620840280.804745;179.0;178.0;120
1620840282.1266575;175.0;178.0;120
1620840283.3517313;167.0;180.0;120
1620840284.6600902;163.0;180.0;120
1620840286.004025;161.0;182.0;120
1620840287.217282;180.0;173.0;120
1620840288.4456375;199.0;165.0;120
1620840289.6954558;218.0;170.0;120
1620840290.9993632;217.0;169.0;120
1620840292.2604704;213.0;167.0;120
1620840293.5587792;204.0;167.0;120
1620840294.8147705;206.0;169.0;120
1620840296.0881803;203.0;168.0;120
1620840297.359574;186.0;174.0;120
1620840298.627726;186.0;174.0;120
1620840299.9723198;188.0;174.0;120
1620840301.1839094;189.0;174.0;120
1620840302.4118683;191.0;172.0;120
1620840303.6369734;195.0;169.0;120
1620840304.8789742;205.0;168.0;120
1620840306.1476653;224.0;164.0;120
1620840307.4213927;225.0;164.0;120
1620840308.7072022;220.0;169.0;120
1620840310.0104625;216.0;168.0;120
1620840311.2755492;215.0;167.0;120
1620840312.5480983;214.0;166.0;120
1620840313.8791463;206.0;169.0;120
1620840315.1899352;204.0;170.0;120
1620840316.439778;203.0;170.0;120
1620840317.6958792;204.0;170.0;120
1620840318.9679515;202.0;171.0;120
1620840320.2868013;190.0;173.0;120
1620840321.5579095;180.0;175.0;120
1620840322.7765675;199.0;173.0;120
1620840324.0262692;189.0;176.0;120
1620840325.3297358;208.0;168.0;120
1620840326.6117153;227.0;162.0;120
1620840327.9609601;246.0;166.0;120
1620840329.1952286;250.0;167.0;120
1620840330.418411;247.0;166.0;120
1620840331.6760006;239.0;168.0;120
1620840332.9791598;232.0;169.0;120
1620840334.2992702;217.0;168.0;120
1620840335.581222;205.0;171.0;120
1620840336.7984715;201.0;172.0;120
1620840338.0699048;220.0;152.0;120
1620840339.364688;239.0;165.0;120
1620840340.6199806;251.0;168.0;120
1620840341.999557;270.0;148.0;120
1620840343.233287;250.0;167.0;120
1620840344.5206213;230.0;171.0;120
1620840345.770326;249.0;151.0;120
1620840347.0823896;229.0;170.0;120
1620840348.3658144;243.0;172.0;120
1620840349.5798497;262.0;152.0;120
1620840350.8007636;274.0;171.0;120
1620840352.1376655;271.0;172.0;120
1620840353.4409418;263.0;171.0;120
1620840354.748554;253.0;174.0;120
1620840356.0200672;248.0;175.0;120
1620840357.3073764;235.0;171.0;120
1620840358.610713;254.0;151.0;120
1620840359.91403;273.0;131.0;120
1620840361.184643;292.0;111.0;120
1620840362.4302368;311.0;91.0;120
1620840363.6775837;330.0;71.0;120
1620840365.0136883;349.0;51.0;120
1620840366.3399231;368.0;31.0;120
1620840367.584314;387.0;11.0;120
1620840368.8126748;406.0;0.0;120
1620840370.0690641;425.0;0.0;120
1620840371.334343;444.0;0.0;120
1620840372.6210852;463.0;0.0;120
1620840373.927886;482.0;0.0;120
1620840375.2110653;499.0;0.0;120
1620840376.5115845;499.0;0.0;120
1620840377.829724;499.0;0.0;120
1620840379.1796913;479.0;19.0;120
1620840380.4886544;459.0;38.0;120
1620840381.7167919;439.0;57.0;120
1620840383.0560076;419.0;76.0;120
1620840384.3743956;399.0;95.0;120
1620840385.5764391;379.0;114.0;120
1620840386.8260746;359.0;133.0;120
1620840388.108569;339.0;152.0;120
1620840389.40142;319.0;171.0;120
1620840390.6605165;314.0;190.0;120
1620840391.9598892;302.0;190.0;120
1620840393.269806;290.0;181.0;120
1620840394.584807;287.0;184.0;120
1620840395.8408933;283.0;184.0;120
1620840397.143773;302.0;188.0;120
1620840398.3912396;321.0;192.0;120
1620840399.6547012;318.0;194.0;120
1620840400.8911214;308.0;193.0;120
1620840402.2087379;300.0;188.0;120
1620840403.4706745;295.0;185.0;120
1620840404.758413;314.0;194.0;120
1620840406.0079541;333.0;205.0;120
1620840407.3400671;342.0;208.0;120
1620840408.605399;338.0;203.0;120
1620840409.9242449;334.0;199.0;120
1620840411.1960418;333.0;199.0;120
1620840412.4986143;332.0;200.0;120
1620840413.8019536;326.0;199.0;120
1620840415.1744115;315.0;196.0;120
1620840416.4779294;334.0;201.0;120
1620840417.7971213;353.0;213.0;120
1620840419.1176789;350.0;215.0;120
1620840420.4100723;349.0;213.0;120
1620840421.8166234;344.0;207.0;120
1620840423.0902042;342.0;206.0;120
1620840424.3715074;344.0;207.0;120
1620840425.65237;344.0;207.0;120
1620840426.939459;343.0;207.0;120
1620840428.253156;344.0;207.0;120
1620840429.5516987;344.0;207.0;120
1620840430.8288836;348.0;211.0;120
1620840432.163033;349.0;211.0;120
1620840433.4350774;350.0;212.0;120
1620840434.745181;362.0;211.0;120
1620840436.0682847;360.0;211.0;120
1620840437.3870914;340.0;204.0;120
1620840438.6436007;331.0;196.0;120
1620840439.913166;336.0;198.0;120
1620840441.2316105;343.0;205.0;120
1620840442.5257533;350.0;207.0;120
1620840443.8445492;355.0;207.0;120
1620840445.1788974;349.0;204.0;120
1620840446.4131684;329.0;197.0;120
1620840447.680432;328.0;193.0;120
1620840449.0042653;328.0;193.0;120
1620840450.3884742;337.0;198.0;120
1620840451.6222284;341.0;203.0;120
1620840452.856145;321.0;188.0;120
1620840454.1782942;301.0;181.0;120
1620840455.4354584;315.0;186.0;120
1620840456.7537472;328.0;189.0;120
1620840457.988057;337.0;197.0;120
1620840459.276374;317.0;188.0;120
1620840460.5535138;302.0;184.0;120
1620840461.840863;282.0;179.0;120
1620840463.218632;283.0;177.0;120
1620840464.4814847;295.0;179.0;120
1620840465.7378924;308.0;184.0;120
1620840467.034785;322.0;187.0;120
1620840468.3234563;318.0;186.0;120
1620840469.5793717;298.0;188.0;120
1620840470.8262963;278.0;178.0;120
1620840472.1099684;273.0;176.0;120
1620840473.4080143;292.0;156.0;120
1620840474.700369;311.0;136.0;120
1620840475.9149952;330.0;116.0;120
1620840477.2093947;349.0;96.0;120
1620840478.5160801;368.0;76.0;120
1620840479.814271;387.0;56.0;120
1620840481.150827;406.0;36.0;120
1620840482.4634228;425.0;16.0;120
1620840483.7426884;444.0;0.0;120
1620840485.0042922;463.0;0.0;120
1620840486.340462;482.0;0.0;120
1620840487.6174018;499.0;0.0;120
1620840488.8776834;479.0;19.0;120
1620840490.1963863;459.0;38.0;120
1620840491.4862263;439.0;57.0;120
1620840492.782923;419.0;76.0;120
1620840494.0264142;399.0;95.0;120
1620840495.3029988;379.0;114.0;120
1620840496.609587;359.0;133.0;120
1620840497.8641875;339.0;152.0;120
1620840499.156208;358.0;132.0;120
1620840500.4853985;377.0;112.0;120
1620840501.7775931;357.0;131.0;120
1620840503.0617719;376.0;111.0;120
1620840504.3558278;395.0;91.0;120
1620840505.65783;414.0;71.0;120
1620840506.9357157;433.0;51.0;120
1620840508.260002;452.0;31.0;120
1620840509.5465631;471.0;11.0;120
1620840510.849556;451.0;30.0;120
1620840512.1636674;431.0;49.0;120
1620840513.4408307;411.0;68.0;120
1620840514.7304184;391.0;87.0;120
1620840515.9850473;371.0;106.0;120
1620840517.272545;351.0;125.0;120
1620840518.575663;331.0;144.0;120
1620840519.8138742;311.0;163.0;120
1620840521.0795133;291.0;181.0;120
1620840522.3722596;271.0;179.0;120
1620840523.6628454;251.0;178.0;120
1620840524.9355228;231.0;172.0;120
1620840526.2436464;222.0;172.0;120
1620840527.5000021;202.0;176.0;120
1620840528.7585607;196.0;176.0;120
1620840530.0066366;215.0;172.0;120
1620840531.3053916;231.0;176.0;120
1620840532.5887544;211.0;176.0;120
1620840533.8605292;198.0;178.0;120
1620840535.1481664;197.0;178.0;120
1620840536.491792;194.0;179.0;120
1620840537.7880452;174.0;181.0;120
1620840539.039551;171.0;181.0;120
1620840540.405512;176.0;178.0;120
1620840541.6751122;173.0;178.0;120
1620840542.947191;175.0;177.0;120
1620840544.2661228;172.0;179.0;120
1620840545.5376582;191.0;173.0;120
1620840546.805907;205.0;172.0;120
1620840548.0671093;185.0;181.0;120
1620840549.350813;165.0;183.0;120
1620840550.655947;145.0;189.0;120
1620840551.9169705;164.0;182.0;120
1620840553.2414725;166.0;182.0;120
1620840554.582548;162.0;184.0;120
1620840555.8768945;168.0;182.0;120
1620840557.2009923;179.0;179.0;120
1620840558.4585013;185.0;175.0;120
1620840559.764439;187.0;175.0;120
1620840561.0146375;167.0;183.0;120
1620840562.335829;160.0;184.0;120
1620840563.643664;146.0;191.0;120
1620840564.9312243;140.0;191.0;120
1620840566.2487013;150.0;188.0;120
1620840567.5304463;150.0;186.0;120
1620840568.771962;142.0;192.0;120
1620840570.0437684;141.0;192.0;120
1620840571.344361;137.0;195.0;120
1620840572.630383;147.0;190.0;120
1620840573.891633;136.0;196.0;120
1620840575.1415174;134.0;198.0;120
1620840576.4290571;150.0;190.0;120
1620840577.7477684;148.0;190.0;120
1620840579.025194;141.0;193.0;120
1620840580.3211198;160.0;178.0;120
1620840581.613181;149.0;191.0;120
1620840582.8852603;153.0;184.0;120
1620840584.1884968;152.0;186.0;120
1620840585.4667108;171.0;172.0;120
1620840586.7427933;190.0;172.0;120
1620840588.0509007;183.0;174.0;120
1620840589.364103;183.0;174.0;120
1620840590.629203;175.0;176.0;120
1620840591.8942175;166.0;177.0;120
1620840593.1576853;164.0;182.0;120
1620840594.454207;150.0;184.0;120
1620840595.7640781;147.0;187.0;120
1620840597.0412316;145.0;188.0;120
1620840598.3080006;164.0;176.0;120
1620840599.5716727;183.0;172.0;120
1620840600.852629;202.0;171.0;120
1620840602.1338806;199.0;171.0;120
1620840603.4075377;194.0;172.0;120
1620840604.6565301;193.0;173.0;120
1620840605.9597025;180.0;175.0;120
1620840607.2400136;172.0;179.0;120
1620840608.5740054;179.0;173.0;120
1620840609.8255963;190.0;171.0;120
1620840611.0911267;209.0;165.0;120
1620840612.385961;215.0;169.0;120
1620840613.650095;216.0;168.0;120
1620840614.952581;203.0;169.0;120
1620840616.224524;203.0;168.0;120
1620840617.5256162;199.0;171.0;120
1620840618.8127651;193.0;171.0;120
1620840620.1159012;175.0;178.0;120
1620840621.476117;194.0;172.0;120
1620840622.8106337;209.0;170.0;120
1620840624.1189783;228.0;166.0;120
1620840625.4116352;241.0;167.0;120
1620840626.695738;221.0;170.0;120
1620840627.984732;221.0;168.0;120
1620840629.2530725;222.0;169.0;120
1620840630.6010618;221.0;168.0;120
1620840631.8686476;205.0;171.0;120
1620840633.0938902;195.0;175.0;120
1620840634.408159;214.0;170.0;120
1620840635.7493904;229.0;171.0;120
1620840637.0189943;232.0;170.0;120
1620840638.317973;215.0;171.0;120
1620840639.63711;206.0;176.0;120
1620840640.8925073;225.0;156.0;120
1620840642.149423;244.0;174.0;120
1620840643.4651864;228.0;172.0;120
1620840644.748773;247.0;152.0;120
1620840646.0034974;266.0;132.0;120
1620840647.2905352;246.0;151.0;120
1620840648.616346;242.0;170.0;120
1620840649.8857481;240.0;172.0;120
1620840651.1766412;233.0;173.0;120
1620840652.5050955;236.0;173.0;120
1620840653.7762976;235.0;172.0;120
1620840655.057834;254.0;152.0;120
1620840656.3355556;273.0;132.0;120
1620840657.6005864;292.0;112.0;120
1620840658.940602;311.0;92.0;120
1620840660.2068038;330.0;72.0;120
1620840661.482745;349.0;52.0;120
1620840662.783137;368.0;32.0;120
1620840664.0863097;387.0;12.0;120
1620840665.3648157;406.0;0.0;120
1620840666.6387722;425.0;0.0;120
1620840667.883178;444.0;0.0;120
1620840669.1583843;463.0;0.0;120
1620840670.4531677;443.0;19.0;120
1620840671.76865;423.0;38.0;120
1620840673.0403814;403.0;57.0;120
1620840674.3370006;383.0;76.0;120
1620840675.6431408;363.0;95.0;120
1620840676.977758;343.0;114.0;120
1620840678.2271008;323.0;133.0;120
1620840679.522478;303.0;152.0;120
1620840680.8385527;283.0;171.0;120
1620840682.1027005;278.0;190.0;120
1620840683.408513;297.0;191.0;120
1620840684.6854541;316.0;197.0;120
1620840685.9870799;318.0;199.0;120
1620840687.2696202;314.0;201.0;120
1620840688.561808;311.0;198.0;120
1620840689.830403;304.0;196.0;120
1620840691.0953376;302.0;195.0;120
1620840692.3830326;299.0;193.0;120
1620840693.7227015;291.0;193.0;120
1620840695.0035;310.0;199.0;120
1620840696.2909834;329.0;206.0;120
1620840697.631292;342.0;211.0;120
1620840698.9501219;325.0;206.0;120
1620840700.2320216;310.0;199.0;120
1620840701.5741782;329.0;210.0;120
1620840702.8444366;343.0;215.0;120
1620840704.1476688;342.0;216.0;120
1620840705.4179618;330.0;213.0;120
1620840706.7417464;322.0;211.0;120
1620840708.082622;341.0;210.0;120
1620840709.364024;360.0;212.0;120
1620840710.6668918;343.0;203.0;120
1620840711.9453614;350.0;210.0;120
1620840713.2147756;330.0;193.0;120
1620840714.5396736;310.0;186.0;120
1620840715.821092;303.0;183.0;120
1620840717.1088276;310.0;192.0;120
1620840718.3544092;312.0;195.0;120
1620840719.7274578;329.0;195.0;120
1620840721.062415;341.0;205.0;120
1620840722.4152522;339.0;205.0;120
1620840723.7763176;319.0;194.0;120
1620840725.0942347;299.0;185.0;120
1620840726.3920074;307.0;191.0;120
1620840727.7416697;314.0;190.0;120
1620840728.9982507;321.0;191.0;120
1620840730.2608058;323.0;193.0;120
1620840731.558528;319.0;193.0;120
1620840732.871737;299.0;186.0;120
1620840734.1481612;291.0;180.0;120
1620840735.422304;299.0;187.0;120
1620840736.7284145;309.0;187.0;120
1620840738.0122423;315.0;187.0;120
1620840739.3065944;295.0;184.0;120
1620840740.6219769;275.0;183.0;120
1620840741.91425;294.0;163.0;120
1620840743.202039;313.0;143.0;120
1620840744.8355348;332.0;123.0;120
1620840746.2918272;351.0;103.0;120
1620840747.605673;370.0;83.0;120
1620840748.911744;389.0;63.0;120
1620840750.1830287;408.0;43.0;120
1620840751.4867175;427.0;23.0;120
1620840752.7778368;446.0;3.0;120
1620840754.11879;465.0;0.0;120
1620840755.418857;484.0;0.0;120
1620840756.695954;499.0;0.0;120
1620840757.9818978;499.0;0.0;120
1620840759.2751858;479.0;19.0;120
1620840760.5692039;459.0;38.0;120
1620840761.827433;439.0;57.0;120
1620840763.0975451;419.0;76.0;120
1620840764.3857052;438.0;56.0;120
1620840765.686408;457.0;36.0;120
1620840766.9891784;476.0;16.0;120
1620840768.248585;456.0;35.0;120
1620840769.512191;436.0;54.0;120
1620840770.8200712;455.0;34.0;120
1620840772.1232433;474.0;14.0;120
1620840773.341675;493.0;0.0;120
1620840774.6305444;499.0;0.0;120
1620840775.9042854;499.0;0.0;120
1620840777.1463802;499.0;0.0;120
1620840778.464877;499.0;0.0;120
1620840782.2774987;479.0;19.0;120
1620840783.561013;459.0;38.0;120
1620840784.8947806;439.0;57.0;120
1620840786.1672082;419.0;76.0;120
1620840787.4506452;399.0;95.0;120
1620840788.6975982;379.0;114.0;120
1620840789.9844787;359.0;133.0;120
1620840791.244998;339.0;152.0;120
1620840792.5469668;319.0;171.0;120
1620840793.8515913;299.0;190.0;120
1620840795.0948274;279.0;209.0;120
1620840796.3282654;259.0;228.0;120
1620840797.6118238;239.0;247.0;120
1620840798.9272797;234.0;266.0;120
1620840800.246052;242.0;282.0;120
1620840801.5251415;244.0;283.0;120
1620840802.8088474;246.0;288.0;120
1620840804.091762;244.0;291.0;120
1620840805.351066;245.0;295.0;120
1620840806.6473482;246.0;297.0;120
1620840807.9000468;252.0;301.0;120
1620840809.1564908;255.0;303.0;120
1620840810.4305546;256.0;305.0;120
1620840811.7351172;257.0;307.0;120
1620840812.9886274;258.0;309.0;120
1620840814.2302175;258.0;311.0;120
1620840815.4980097;259.0;313.0;120
1620840816.7666388;256.0;315.0;120
1620840818.0857036;246.0;316.0;120
1620840819.3473887;248.0;318.0;120
1620840820.628637;250.0;320.0;120
1620840821.9158213;252.0;326.0;120
1620840823.182831;251.0;326.0;120
1620840824.4919958;250.0;327.0;120
1620840825.7878802;252.0;331.0;120
1620840827.071357;252.0;334.0;120
1620840828.3280385;253.0;340.0;120
1620840829.6119323;253.0;341.0;120
1620840830.9159775;254.0;345.0;120
1620840832.1873782;250.0;348.0;120
1620840833.4550464;252.0;351.0;120
1620840834.7412803;251.0;352.0;120
1620840835.9824715;250.0;355.0;120
1620840837.2881944;249.0;355.0;120
1620840838.515646;252.0;358.0;120
1620840839.7702925;253.0;362.0;120
1620840841.046142;250.0;364.0;120
1620840842.325856;254.0;365.0;120
1620840843.6438005;249.0;368.0;120
1620840844.9365373;249.0;370.0;120
1620840846.2082047;250.0;372.0;120
1620840847.485993;250.0;377.0;120
1620840848.7610204;269.0;378.0;120
1620840850.0759737;288.0;391.0;120
1620840851.3032947;296.0;397.0;120
1620840852.5789528;296.0;399.0;120
1620840853.8541093;276.0;397.0;120
1620840855.139886;256.0;393.0;120
1620840856.3921154;275.0;395.0;120
1620840857.6651497;294.0;406.0;120
1620840858.9405084;296.0;410.0;120
1620840860.4144154;297.0;412.0;120
1620840862.021897;295.0;413.0;120
1620840863.4812174;295.0;413.0;120
1620840864.9240468;295.0;413.0;120
