Timestamp;Column2;Column3;ID;X;Y;Column7;Column8;Column9;Column10;Column11;Column12;Column13;Column14;Column15;Column16;Column17;Column18;Column19
1620815467264;250079;1880566;120;1.470;-2.135;0.000;2;3.802;69;2.737;98;6.462;255;0;0;0;0;
1620815467265;1;1880567;120;1.470;-2.135;0.000;2;3.802;69;2.737;98;6.462;255;0;0;0;0;
1620815467338;73;1880640;120;1.471;-2.135;0.000;2;3.799;69;2.742;98;6.467;255;0;0;0;0;
1620815467369;31;1880671;120;1.471;-2.135;0.000;2;3.799;69;2.742;98;6.467;255;0;0;0;0;
1620815467370;1;1880672;120;1.471;-2.135;0.000;2;3.799;69;2.742;98;6.467;255;0;0;0;0;
1620815467432;62;1880734;120;1.471;-2.134;0.000;2;3.799;69;2.742;98;6.467;255;0;0;0;0;
1620815467463;31;1880765;120;1.471;-2.134;0.000;2;3.805;69;2.737;98;6.462;255;0;0;0;0;
1620815467463;0;1880765;120;1.471;-2.134;0.000;2;3.805;69;2.737;98;6.462;255;0;0;0;0;
1620815467510;47;1880812;120;1.471;-2.134;0.000;2;3.805;69;2.737;98;6.462;255;0;0;0;0;
1620815467541;31;1880843;120;1.471;-2.134;0.000;2;3.799;69;2.737;98;6.467;255;0;0;0;0;
1620815467541;0;1880843;120;1.471;-2.134;0.000;2;3.799;69;2.737;98;6.467;255;0;0;0;0;
1620815467572;31;1880874;120;1.471;-2.134;0.000;2;3.799;69;2.737;98;6.467;255;0;0;0;0;
1620815467619;47;1880921;120;1.471;-2.134;0.000;2;3.799;69;2.737;98;6.467;255;0;0;0;0;
1620815467619;0;1880921;120;1.471;-2.134;0.000;2;3.799;69;2.737;98;6.467;255;0;0;0;0;
1620815467665;46;1880967;120;1.470;-2.134;0.000;2;3.799;69;2.737;98;6.467;255;0;0;0;0;
1620815467697;32;1880999;120;1.470;-2.134;0.000;2;3.799;69;2.737;98;6.462;255;0;0;0;0;
1620815467697;0;1880999;120;1.470;-2.134;0.000;2;3.799;69;2.737;98;6.462;255;0;0;0;0;
1620815467728;31;1881030;120;1.470;-2.134;0.000;2;3.799;69;2.737;98;6.462;255;0;0;0;0;
1620815467759;31;1881061;120;1.470;-2.134;0.000;2;3.799;69;2.737;98;6.462;255;0;0;0;0;
1620815467759;0;1881061;120;1.470;-2.134;0.000;2;3.799;69;2.737;98;6.462;255;0;0;0;0;
1620815467806;47;1881108;120;1.470;-2.133;0.000;2;3.799;69;2.737;98;6.462;255;0;0;0;0;
1620815467837;31;1881139;120;1.470;-2.133;0.000;2;3.799;69;2.737;98;6.462;255;0;0;0;0;
1620815467837;0;1881139;120;1.470;-2.133;0.000;2;3.799;69;2.737;98;6.462;255;0;0;0;0;
1620815467899;62;1881201;120;1.470;-2.133;0.000;2;3.799;69;2.737;98;6.462;255;0;0;0;0;
1620815467930;31;1881232;120;1.470;-2.134;0.000;2;3.805;69;2.742;98;6.467;255;0;0;0;0;
1620815467931;1;1881233;120;1.470;-2.134;0.000;2;3.805;69;2.742;98;6.467;255;0;0;0;0;
1620815467993;62;1881295;120;1.470;-2.134;0.000;2;3.805;69;2.742;98;6.467;255;0;0;0;0;
1620815468024;31;1881326;120;1.470;-2.134;0.000;2;3.805;69;2.742;98;6.467;255;0;0;0;0;
1620815468024;0;1881326;120;1.470;-2.134;0.000;2;3.805;69;2.742;98;6.467;255;0;0;0;0;
1620815468055;31;1881357;120;1.469;-2.133;0.000;2;3.805;69;2.729;98;6.467;255;0;0;0;0;
1620815468117;62;1881419;120;1.469;-2.133;0.000;2;3.805;69;2.729;98;6.467;255;0;0;0;0;
1620815468118;1;1881420;120;1.469;-2.133;0.000;2;3.805;69;2.729;98;6.467;255;0;0;0;0;
1620815468164;46;1881466;120;1.468;-2.133;0.000;2;3.805;69;2.729;98;6.467;255;0;0;0;0;
1620815468211;47;1881513;120;1.468;-2.133;0.000;2;3.805;69;2.737;98;6.467;255;0;0;0;0;
1620815468211;0;1881513;120;1.468;-2.133;0.000;2;3.805;69;2.737;98;6.467;255;0;0;0;0;
1620815468242;31;1881544;120;1.468;-2.133;0.000;2;3.805;69;2.737;98;6.467;255;0;0;0;0;
1620815468304;62;1881606;120;1.467;-2.132;0.000;2;3.805;69;2.737;98;6.467;255;0;0;0;0;
1620815468305;1;1881607;120;1.467;-2.132;0.000;2;3.805;69;2.737;98;6.467;255;0;0;0;0;
1620815468335;30;1881637;120;1.467;-2.132;0.000;2;3.805;69;2.737;98;6.467;255;0;0;0;0;
1620815468382;47;1881684;120;1.467;-2.132;0.000;2;3.805;69;2.737;98;6.467;255;0;0;0;0;
1620815468382;0;1881684;120;1.467;-2.132;0.000;2;3.805;69;2.737;98;6.467;255;0;0;0;0;
1620815468413;31;1881715;120;1.467;-2.132;0.000;2;3.805;69;2.737;98;6.467;255;0;0;0;0;
1620815468444;31;1881746;120;1.467;-2.132;0.000;2;3.805;69;2.742;98;6.462;255;0;0;0;0;
1620815468445;1;1881747;120;1.467;-2.132;0.000;2;3.805;69;2.742;98;6.462;255;0;0;0;0;
1620815468491;46;1881793;120;1.467;-2.132;0.000;2;3.805;69;2.742;98;6.462;255;0;0;0;0;
1620815468522;31;1881824;120;1.467;-2.132;0.000;2;3.805;69;2.742;98;6.462;255;0;0;0;0;
1620815468523;1;1881825;120;1.467;-2.132;0.000;2;3.805;69;2.742;98;6.462;255;0;0;0;0;
1620815468553;30;1881855;120;1.468;-2.132;0.000;2;3.805;69;2.737;98;6.467;255;0;0;0;0;
1620815468600;47;1881902;120;1.468;-2.132;0.000;2;3.805;69;2.737;98;6.467;255;0;0;0;0;
1620815468601;1;1881903;120;1.468;-2.132;0.000;2;3.805;69;2.737;98;6.467;255;0;0;0;0;
1620815468631;30;1881933;120;1.468;-2.132;0.000;2;3.805;69;2.737;98;6.467;255;0;0;0;0;
1620815468662;31;1881964;120;1.468;-2.132;0.000;2;3.805;69;2.737;98;6.467;255;0;0;0;0;
1620815468663;1;1881965;120;1.468;-2.132;0.000;2;3.805;69;2.737;98;6.467;255;0;0;0;0;
1620815468709;46;1882011;120;1.468;-2.132;0.000;2;3.799;69;2.742;98;6.467;255;0;0;0;0;
1620815468740;31;1882042;120;1.468;-2.132;0.000;2;3.799;69;2.742;98;6.467;255;0;0;0;0;
1620815468741;1;1882043;120;1.468;-2.132;0.000;2;3.799;69;2.742;98;6.467;255;0;0;0;0;
1620815468803;62;1882105;120;1.468;-2.132;0.000;2;3.799;69;2.742;98;6.467;255;0;0;0;0;
1620815468834;31;1882136;120;1.468;-2.132;0.000;2;3.799;69;2.742;98;6.467;255;0;0;0;0;
1620815468834;0;1882136;120;1.468;-2.132;0.000;2;3.799;69;2.742;98;6.467;255;0;0;0;0;
1620815468865;31;1882167;120;1.468;-2.132;0.000;2;3.799;69;2.742;98;6.467;255;0;0;0;0;
1620815468896;31;1882198;120;1.468;-2.132;0.000;2;3.799;69;2.742;98;6.467;255;0;0;0;0;
1620815468897;1;1882199;120;1.468;-2.132;0.000;2;3.799;69;2.742;98;6.467;255;0;0;0;0;
1620815468927;30;1882229;120;1.468;-2.133;0.000;2;3.805;69;2.737;98;6.467;255;0;0;0;0;
1620815468990;63;1882292;120;1.468;-2.133;0.000;2;3.805;69;2.737;98;6.467;255;0;0;0;0;
1620815468990;0;1882292;120;1.468;-2.133;0.000;2;3.805;69;2.737;98;6.467;255;0;0;0;0;
1620815469021;31;1882323;120;1.468;-2.133;0.000;2;3.805;69;2.737;98;6.467;255;0;0;0;0;
1620815469083;62;1882385;120;1.468;-2.133;0.000;2;3.805;69;2.737;98;6.467;255;0;0;0;0;
1620815469083;0;1882385;120;1.468;-2.133;0.000;2;3.805;69;2.737;98;6.467;255;0;0;0;0;
1620815469114;31;1882416;120;1.468;-2.133;0.000;2;3.802;69;2.742;98;6.467;255;0;0;0;0;
1620815469145;31;1882447;120;1.468;-2.133;0.000;2;3.802;69;2.742;98;6.467;255;0;0;0;0;
1620815469146;1;1882448;120;1.468;-2.133;0.000;2;3.802;69;2.742;98;6.467;255;0;0;0;0;
1620815469208;62;1882510;120;1.468;-2.133;0.000;2;3.802;69;2.742;98;6.467;255;0;0;0;0;
1620815469254;46;1882556;120;1.468;-2.133;0.000;2;3.805;69;2.742;98;6.467;255;0;0;0;0;
1620815469255;1;1882557;120;1.468;-2.133;0.000;2;3.805;69;2.742;98;6.467;255;0;0;0;0;
1620815469285;30;1882587;120;1.468;-2.133;0.000;2;3.805;69;2.742;98;6.467;255;0;0;0;0;
1620815469317;32;1882619;120;1.468;-2.133;0.000;2;3.805;69;2.742;98;6.467;255;0;0;0;0;
1620815469317;0;1882619;120;1.468;-2.133;0.000;2;3.805;69;2.742;98;6.467;255;0;0;0;0;
1620815469363;46;1882665;120;1.468;-2.133;0.000;2;3.805;69;2.742;98;6.467;255;0;0;0;0;
1620815469395;32;1882697;120;1.468;-2.133;0.000;2;3.805;69;2.742;98;6.467;255;0;0;0;0;
1620815469395;0;1882697;120;1.468;-2.133;0.000;2;3.805;69;2.742;98;6.467;255;0;0;0;0;
1620815469426;31;1882728;120;1.468;-2.133;0.000;2;3.805;69;2.737;98;6.467;255;0;0;0;0;
1620815469472;46;1882774;120;1.468;-2.133;0.000;2;3.805;69;2.737;98;6.467;255;0;0;0;0;
1620815469473;1;1882775;120;1.468;-2.133;0.000;2;3.805;69;2.737;98;6.467;255;0;0;0;0;
1620815469504;31;1882806;120;1.468;-2.133;0.000;2;3.805;69;2.737;98;6.467;255;0;0;0;0;
1620815469535;31;1882837;120;1.468;-2.133;0.000;2;3.805;69;2.737;98;6.467;255;0;0;0;0;
1620815469535;0;1882837;120;1.468;-2.133;0.000;2;3.805;69;2.737;98;6.467;255;0;0;0;0;
1620815469581;46;1882883;120;1.469;-2.133;0.000;2;3.805;69;2.737;98;6.462;255;0;0;0;0;
1620815469628;47;1882930;120;1.469;-2.133;0.000;2;3.805;69;2.737;98;6.462;255;0;0;0;0;
1620815469629;1;1882931;120;1.469;-2.133;0.000;2;3.805;69;2.737;98;6.462;255;0;0;0;0;
1620815469659;30;1882961;120;1.469;-2.133;0.000;2;3.805;69;2.737;98;6.462;255;0;0;0;0;
1620815469722;63;1883024;120;1.469;-2.132;0.000;2;3.805;69;2.742;98;6.462;255;0;0;0;0;
1620815469722;0;1883024;120;1.469;-2.132;0.000;2;3.805;69;2.742;98;6.462;255;0;0;0;0;
1620815469753;31;1883055;69;0.000;0.000;0.000;255;0;0;0;0;;;;;;;
1620815469753;0;1883055;98;7.507;0.000;0.000;255;0;0;0;0;;;;;;;
1620815469754;1;1883056;2;3.013;-5.494;0.000;255;0;0;0;0;;;;;;;
1620815469754;0;1883056;120;1.469;-2.132;0.000;2;3.805;69;2.742;98;6.462;255;0;0;0;0;
1620815469815;61;1883117;120;1.470;-2.132;0.000;2;3.805;69;2.742;98;6.462;255;0;0;0;0;
1620815469816;1;1883118;120;1.470;-2.132;0.000;2;3.805;69;2.742;98;6.462;255;0;0;0;0;
1620815469877;61;1883179;120;1.470;-2.132;0.000;2;3.805;69;2.742;98;6.462;255;0;0;0;0;
1620815469909;32;1883211;120;1.470;-2.132;0.000;2;3.805;69;2.737;98;6.467;255;0;0;0;0;
1620815469909;0;1883211;120;1.470;-2.132;0.000;2;3.805;69;2.737;98;6.467;255;0;0;0;0;
1620815469940;31;1883242;120;1.470;-2.132;0.000;2;3.805;69;2.737;98;6.467;255;0;0;0;0;
1620815469986;46;1883288;120;1.470;-2.132;0.000;2;3.805;69;2.737;98;6.467;255;0;0;0;0;
1620815469987;1;1883289;120;1.470;-2.132;0.000;2;3.805;69;2.737;98;6.467;255;0;0;0;0;
1620815470018;31;1883320;120;1.470;-2.132;0.000;2;3.805;69;2.737;98;6.467;255;0;0;0;0;
1620815470080;62;1883382;120;1.470;-2.131;0.000;2;3.805;69;2.737;98;6.462;255;0;0;0;0;
1620815470080;0;1883382;120;1.470;-2.131;0.000;2;3.805;69;2.737;98;6.462;255;0;0;0;0;
1620815470111;31;1883413;120;1.470;-2.131;0.000;2;3.810;69;2.737;98;6.462;255;0;0;0;0;
1620815470173;62;1883475;120;1.470;-2.131;0.000;2;3.810;69;2.737;98;6.462;255;0;0;0;0;
1620815470174;1;1883476;120;1.470;-2.131;0.000;2;3.810;69;2.737;98;6.462;255;0;0;0;0;
1620815470205;31;1883507;120;1.470;-2.131;0.000;2;3.805;69;2.737;98;6.462;255;0;0;0;0;
1620815470236;31;1883538;120;1.470;-2.131;0.000;2;3.805;69;2.737;98;6.462;255;0;0;0;0;
1620815470236;0;1883538;120;1.470;-2.131;0.000;2;3.805;69;2.737;98;6.462;255;0;0;0;0;
1620815470298;62;1883600;120;1.470;-2.130;0.000;2;3.805;69;2.737;98;6.462;255;0;0;0;0;
1620815470345;47;1883647;120;1.470;-2.130;0.000;2;3.802;69;2.742;98;6.467;255;0;0;0;0;
1620815470345;0;1883647;120;1.470;-2.130;0.000;2;3.802;69;2.742;98;6.467;255;0;0;0;0;
1620815470376;31;1883678;120;1.470;-2.130;0.000;2;3.802;69;2.742;98;6.467;255;0;0;0;0;
1620815470407;31;1883709;120;1.470;-2.130;0.000;2;3.802;69;2.742;98;6.467;255;0;0;0;0;
1620815470408;1;1883710;120;1.470;-2.130;0.000;2;3.802;69;2.742;98;6.467;255;0;0;0;0;
1620815470454;46;1883756;120;1.470;-2.130;0.000;2;3.807;69;2.737;98;6.462;255;0;0;0;0;
1620815470485;31;1883787;120;1.470;-2.130;0.000;2;3.807;69;2.737;98;6.462;255;0;0;0;0;
1620815470485;0;1883787;120;1.470;-2.130;0.000;2;3.807;69;2.737;98;6.462;255;0;0;0;0;
1620815470516;31;1883818;120;1.470;-2.130;0.000;2;3.807;69;2.737;98;6.462;255;0;0;0;0;
1620815470563;47;1883865;120;1.470;-2.130;0.000;2;3.807;69;2.737;98;6.462;255;0;0;0;0;
1620815470563;0;1883865;120;1.470;-2.130;0.000;2;3.807;69;2.737;98;6.462;255;0;0;0;0;
1620815470594;31;1883896;120;1.470;-2.130;0.000;2;3.807;69;2.737;98;6.467;255;0;0;0;0;
1620815470625;31;1883927;120;1.470;-2.130;0.000;2;3.807;69;2.737;98;6.467;255;0;0;0;0;
1620815470626;1;1883928;120;1.470;-2.130;0.000;2;3.807;69;2.737;98;6.467;255;0;0;0;0;
1620815470672;46;1883974;120;1.470;-2.130;0.000;2;3.807;69;2.737;98;6.467;255;0;0;0;0;
1620815470703;31;1884005;120;1.470;-2.131;0.000;2;3.805;69;2.737;98;6.467;255;0;0;0;0;
1620815470704;1;1884006;120;1.470;-2.131;0.000;2;3.805;69;2.737;98;6.467;255;0;0;0;0;
1620815470734;30;1884036;120;1.470;-2.131;0.000;2;3.805;69;2.737;98;6.467;255;0;0;0;0;
1620815470785;51;1884087;120;1.470;-2.131;0.000;2;3.805;69;2.737;98;6.467;255;0;0;0;0;
1620815470785;0;1884087;120;1.470;-2.131;0.000;2;3.805;69;2.737;98;6.467;255;0;0;0;0;
1620815470843;58;1884145;120;1.469;-2.131;0.000;2;3.805;69;2.737;98;6.467;255;0;0;0;0;
1620815470890;47;1884192;120;1.469;-2.131;0.000;2;3.805;69;2.742;98;6.467;255;0;0;0;0;
1620815470890;0;1884192;120;1.469;-2.131;0.000;2;3.805;69;2.742;98;6.467;255;0;0;0;0;
1620815470921;31;1884223;120;1.469;-2.131;0.000;2;3.805;69;2.742;98;6.467;255;0;0;0;0;
1620815470968;47;1884270;120;1.469;-2.131;0.000;2;3.805;69;2.737;98;6.462;255;0;0;0;0;
1620815470968;0;1884270;120;1.469;-2.131;0.000;2;3.805;69;2.737;98;6.462;255;0;0;0;0;
1620815470999;31;1884301;120;1.469;-2.131;0.000;2;3.805;69;2.737;98;6.462;255;0;0;0;0;
1620815471030;31;1884332;120;1.469;-2.131;0.000;2;3.805;69;2.737;98;6.462;255;0;0;0;0;
1620815471031;1;1884333;120;1.469;-2.131;0.000;2;3.805;69;2.737;98;6.462;255;0;0;0;0;
1620815471061;30;1884363;120;1.468;-2.132;0.000;2;3.805;69;2.737;98;6.462;255;0;0;0;0;
1620815471124;63;1884426;120;1.468;-2.132;0.000;2;3.805;69;2.737;98;6.462;255;0;0;0;0;
1620815471124;0;1884426;120;1.468;-2.132;0.000;2;3.805;69;2.737;98;6.462;255;0;0;0;0;
1620815471170;46;1884472;120;1.468;-2.132;0.000;2;3.802;69;2.742;98;6.473;255;0;0;0;0;
1620815471202;32;1884504;120;1.468;-2.132;0.000;2;3.805;69;2.742;98;6.467;255;0;0;0;0;
1620815471202;0;1884504;120;1.468;-2.132;0.000;2;3.805;69;2.742;98;6.467;255;0;0;0;0;
1620815471233;31;1884535;120;1.468;-2.132;0.000;2;3.805;69;2.742;98;6.467;255;0;0;0;0;
1620815471295;62;1884597;120;1.468;-2.132;0.000;2;3.805;69;2.742;98;6.467;255;0;0;0;0;
1620815471296;1;1884598;120;1.468;-2.132;0.000;2;3.805;69;2.742;98;6.467;255;0;0;0;0;
1620815471326;30;1884628;120;1.468;-2.133;0.000;2;3.805;69;2.737;98;6.467;255;0;0;0;0;
1620815471388;62;1884690;120;1.468;-2.133;0.000;2;3.805;69;2.737;98;6.467;255;0;0;0;0;
1620815471389;1;1884691;120;1.468;-2.133;0.000;2;3.805;69;2.737;98;6.467;255;0;0;0;0;
1620815471420;31;1884722;120;1.468;-2.133;0.000;2;3.805;69;2.737;98;6.467;255;0;0;0;0;
1620815471482;62;1884784;120;1.468;-2.133;0.000;2;3.805;69;2.737;98;6.462;255;0;0;0;0;
1620815471482;0;1884784;120;1.468;-2.133;0.000;2;3.805;69;2.737;98;6.462;255;0;0;0;0;
1620815471513;31;1884815;120;1.468;-2.133;0.000;2;3.805;69;2.737;98;6.462;255;0;0;0;0;
1620815471575;62;1884877;120;1.468;-2.133;0.000;2;3.805;69;2.737;98;6.462;255;0;0;0;0;
1620815471576;1;1884878;120;1.468;-2.133;0.000;2;3.805;69;2.737;98;6.462;255;0;0;0;0;
1620815471607;31;1884909;120;1.468;-2.133;0.000;2;3.799;69;2.742;98;6.467;255;0;0;0;0;
1620815471638;31;1884940;120;1.468;-2.133;0.000;2;3.799;69;2.742;98;6.467;255;0;0;0;0;
1620815471638;0;1884940;120;1.468;-2.133;0.000;2;3.799;69;2.742;98;6.467;255;0;0;0;0;
1620815471700;62;1885002;120;1.468;-2.133;0.000;2;3.799;69;2.742;98;6.467;255;0;0;0;0;
1620815471731;31;1885033;120;1.468;-2.133;0.000;2;3.799;69;2.742;98;6.467;255;0;0;0;0;
1620815471732;1;1885034;120;1.468;-2.133;0.000;2;3.799;69;2.742;98;6.467;255;0;0;0;0;
1620815471809;77;1885111;120;1.468;-2.134;0.000;2;3.799;69;2.742;98;6.467;255;0;0;0;0;
1620815471840;31;1885142;120;1.468;-2.134;0.000;2;3.799;69;2.742;98;6.467;255;0;0;0;0;
1620815471841;1;1885143;120;1.468;-2.134;0.000;2;3.799;69;2.742;98;6.467;255;0;0;0;0;
1620815471887;46;1885189;120;1.468;-2.134;0.000;2;3.805;69;2.742;98;6.467;255;0;0;0;0;
1620815471918;31;1885220;120;1.468;-2.134;0.000;2;3.805;69;2.742;98;6.467;255;0;0;0;0;
1620815471919;1;1885221;120;1.468;-2.134;0.000;2;3.805;69;2.742;98;6.467;255;0;0;0;0;
1620815471949;30;1885251;120;1.469;-2.134;0.000;2;3.805;69;2.737;98;6.462;255;0;0;0;0;
1620815471996;47;1885298;120;1.469;-2.134;0.000;2;3.805;69;2.737;98;6.462;255;0;0;0;0;
1620815471996;0;1885298;120;1.469;-2.134;0.000;2;3.805;69;2.737;98;6.462;255;0;0;0;0;
1620815472027;31;1885329;120;1.469;-2.134;0.000;2;3.805;69;2.737;98;6.462;255;0;0;0;0;
1620815472058;31;1885360;120;1.469;-2.134;0.000;2;3.805;69;2.742;98;6.467;255;0;0;0;0;
1620815472059;1;1885361;120;1.469;-2.134;0.000;2;3.805;69;2.742;98;6.467;255;0;0;0;0;
1620815472074;15;1885376;120;1.469;-2.134;0.000;2;3.799;69;2.742;98;6.467;255;0;0;0;0;
1620815472105;31;1885407;120;1.469;-2.134;0.000;2;3.799;69;2.742;98;6.467;255;0;0;0;0;
1620815472106;1;1885408;120;1.469;-2.134;0.000;2;3.799;69;2.742;98;6.467;255;0;0;0;0;
1620815472136;30;1885438;120;1.469;-2.134;0.000;2;3.799;69;2.742;98;6.467;255;0;0;0;0;
1620815472183;47;1885485;120;1.469;-2.134;0.000;2;3.799;69;2.742;98;6.467;255;0;0;0;0;
1620815472183;0;1885485;120;1.469;-2.134;0.000;2;3.799;69;2.742;98;6.467;255;0;0;0;0;
1620815472245;62;1885547;120;1.469;-2.134;0.000;2;3.805;69;2.742;98;6.467;255;0;0;0;0;
1620815472276;31;1885578;120;1.469;-2.134;0.000;2;3.805;69;2.742;98;6.467;255;0;0;0;0;
1620815472277;1;1885579;120;1.469;-2.134;0.000;2;3.805;69;2.742;98;6.467;255;0;0;0;0;
1620815472292;15;1885594;120;1.469;-2.134;0.000;2;3.805;69;2.742;98;6.467;255;0;0;0;0;
1620815472354;62;1885656;120;1.469;-2.134;0.000;2;3.805;69;2.742;98;6.467;255;0;0;0;0;
1620815472355;1;1885657;120;1.469;-2.134;0.000;2;3.805;69;2.742;98;6.467;255;0;0;0;0;
1620815472385;30;1885687;120;1.469;-2.134;0.000;2;3.805;69;2.742;98;6.467;255;0;0;0;0;
1620815472417;32;1885719;120;1.469;-2.134;0.000;2;3.805;69;2.742;98;6.467;255;0;0;0;0;
1620815472417;0;1885719;120;1.469;-2.134;0.000;2;3.805;69;2.742;98;6.467;255;0;0;0;0;
1620815472479;62;1885781;120;1.469;-2.134;0.000;2;3.805;69;2.742;98;6.467;255;0;0;0;0;
1620815472510;31;1885812;120;1.469;-2.134;0.000;2;3.805;69;2.742;98;6.467;255;0;0;0;0;
1620815472511;1;1885813;120;1.469;-2.134;0.000;2;3.805;69;2.742;98;6.467;255;0;0;0;0;
1620815472572;61;1885874;120;1.469;-2.133;0.000;2;3.805;69;2.742;98;6.467;255;0;0;0;0;
1620815472604;32;1885906;120;1.469;-2.133;0.000;2;3.805;69;2.742;98;6.462;255;0;0;0;0;
1620815472604;0;1885906;120;1.469;-2.133;0.000;2;3.805;69;2.742;98;6.462;255;0;0;0;0;
1620815472650;46;1885952;120;1.469;-2.133;0.000;2;3.805;69;2.742;98;6.462;255;0;0;0;0;
1620815472681;31;1885983;120;1.469;-2.133;0.000;2;3.805;69;2.742;98;6.462;255;0;0;0;0;
1620815472682;1;1885984;120;1.469;-2.133;0.000;2;3.805;69;2.742;98;6.462;255;0;0;0;0;
1620815472713;31;1886015;120;1.470;-2.133;0.000;2;3.805;69;2.742;98;6.462;255;0;0;0;0;
1620815472759;46;1886061;120;1.470;-2.133;0.000;2;3.805;69;2.742;98;6.462;255;0;0;0;0;
1620815472760;1;1886062;120;1.470;-2.133;0.000;2;3.805;69;2.742;98;6.462;255;0;0;0;0;
1620815472822;62;1886124;120;1.471;-2.133;0.000;2;3.805;69;2.742;98;6.462;255;0;0;0;0;
1620815472837;15;1886139;120;1.471;-2.133;0.000;2;3.805;69;2.742;98;6.462;255;0;0;0;0;
1620815472838;1;1886140;120;1.471;-2.133;0.000;2;3.805;69;2.742;98;6.462;255;0;0;0;0;
1620815472899;61;1886201;120;1.471;-2.133;0.000;2;3.799;69;2.742;98;6.462;255;0;0;0;0;
1620815472931;32;1886233;120;1.471;-2.133;0.000;2;3.799;69;2.742;98;6.462;255;0;0;0;0;
1620815472931;0;1886233;120;1.471;-2.133;0.000;2;3.799;69;2.742;98;6.462;255;0;0;0;0;
1620815472977;46;1886279;120;1.471;-2.132;0.000;2;3.805;69;2.742;98;6.467;255;0;0;0;0;
1620815473024;47;1886326;120;1.471;-2.132;0.000;2;3.805;69;2.742;98;6.467;255;0;0;0;0;
1620815473025;1;1886327;120;1.471;-2.132;0.000;2;3.805;69;2.742;98;6.467;255;0;0;0;0;
1620815473055;30;1886357;120;1.471;-2.132;0.000;2;3.805;69;2.742;98;6.467;255;0;0;0;0;
1620815473118;63;1886420;120;1.471;-2.132;0.000;2;3.805;69;2.742;98;6.467;255;0;0;0;0;
1620815473118;0;1886420;120;1.471;-2.132;0.000;2;3.805;69;2.742;98;6.467;255;0;0;0;0;
1620815473149;31;1886451;120;1.471;-2.132;0.000;2;3.805;69;2.742;98;6.467;255;0;0;0;0;
1620815473180;31;1886482;120;1.471;-2.132;0.000;2;3.805;69;2.742;98;6.467;255;0;0;0;0;
1620815473180;0;1886482;120;1.471;-2.132;0.000;2;3.805;69;2.742;98;6.467;255;0;0;0;0;
1620815473211;31;1886513;120;1.471;-2.132;0.000;2;3.805;69;2.742;98;6.467;255;0;0;0;0;
1620815473242;31;1886544;120;1.471;-2.132;0.000;2;3.805;69;2.742;98;6.467;255;0;0;0;0;
1620815473243;1;1886545;120;1.471;-2.132;0.000;2;3.805;69;2.742;98;6.467;255;0;0;0;0;
1620815473305;62;1886607;120;1.471;-2.132;0.000;2;3.805;69;2.742;98;6.467;255;0;0;0;0;
1620815473351;46;1886653;120;1.470;-2.132;0.000;2;3.805;69;2.737;98;6.467;255;0;0;0;0;
1620815473352;1;1886654;120;1.470;-2.132;0.000;2;3.805;69;2.737;98;6.467;255;0;0;0;0;
1620815473382;30;1886684;120;1.470;-2.132;0.000;2;3.805;69;2.737;98;6.467;255;0;0;0;0;
1620815473414;32;1886716;120;1.470;-2.132;0.000;2;3.805;69;2.737;98;6.467;255;0;0;0;0;
1620815473414;0;1886716;120;1.470;-2.132;0.000;2;3.805;69;2.737;98;6.467;255;0;0;0;0;
1620815473476;62;1886778;120;1.470;-2.132;0.000;2;3.805;69;2.737;98;6.467;255;0;0;0;0;
1620815473507;31;1886809;120;1.470;-2.132;0.000;2;3.805;69;2.742;98;6.462;255;0;0;0;0;
1620815473508;1;1886810;120;1.470;-2.132;0.000;2;3.805;69;2.742;98;6.462;255;0;0;0;0;
1620815473569;61;1886871;120;1.470;-2.132;0.000;2;3.805;69;2.742;98;6.462;255;0;0;0;0;
1620815473600;31;1886902;120;1.470;-2.132;0.000;2;3.799;69;2.737;98;6.462;255;0;0;0;0;
1620815473601;1;1886903;120;1.470;-2.132;0.000;2;3.799;69;2.737;98;6.462;255;0;0;0;0;
1620815473663;62;1886965;120;1.470;-2.132;0.000;2;3.799;69;2.737;98;6.462;255;0;0;0;0;
1620815473694;31;1886996;120;1.470;-2.132;0.000;2;3.799;69;2.737;98;6.462;255;0;0;0;0;
1620815473694;0;1886996;120;1.470;-2.132;0.000;2;3.799;69;2.737;98;6.462;255;0;0;0;0;
1620815473741;47;1887043;120;1.470;-2.132;0.000;2;3.799;69;2.737;98;6.462;255;0;0;0;0;
1620815473803;62;1887105;120;1.470;-2.132;0.000;2;3.799;69;2.737;98;6.462;255;0;0;0;0;
1620815473803;0;1887105;120;1.470;-2.132;0.000;2;3.799;69;2.737;98;6.462;255;0;0;0;0;
1620815473819;16;1887121;120;1.471;-2.132;0.000;2;3.799;69;2.737;98;6.462;255;0;0;0;0;
1620815473881;62;1887183;120;1.471;-2.132;0.000;2;3.805;69;2.742;98;6.462;255;0;0;0;0;
1620815473881;0;1887183;120;1.471;-2.132;0.000;2;3.805;69;2.742;98;6.462;255;0;0;0;0;
1620815473912;31;1887214;120;1.471;-2.132;0.000;2;3.805;69;2.742;98;6.462;255;0;0;0;0;
1620815473974;62;1887276;120;1.471;-2.133;0.000;2;3.799;69;2.742;98;6.462;255;0;0;0;0;
1620815473975;1;1887277;120;1.471;-2.133;0.000;2;3.799;69;2.742;98;6.462;255;0;0;0;0;
1620815474005;30;1887307;120;1.471;-2.133;0.000;2;3.799;69;2.742;98;6.462;255;0;0;0;0;
1620815474037;32;1887339;120;1.471;-2.133;0.000;2;3.799;69;2.742;98;6.462;255;0;0;0;0;
1620815474037;0;1887339;120;1.471;-2.133;0.000;2;3.799;69;2.742;98;6.462;255;0;0;0;0;
1620815474099;62;1887401;120;1.472;-2.133;0.000;2;3.805;69;2.742;98;6.462;255;0;0;0;0;
1620815474130;31;1887432;120;1.472;-2.133;0.000;2;3.805;69;2.742;98;6.462;255;0;0;0;0;
1620815474131;1;1887433;120;1.472;-2.133;0.000;2;3.805;69;2.742;98;6.462;255;0;0;0;0;
1620815474177;46;1887479;120;1.472;-2.133;0.000;2;3.805;69;2.742;98;6.462;255;0;0;0;0;
1620815474208;31;1887510;120;1.472;-2.133;0.000;2;3.805;69;2.737;98;6.462;255;0;0;0;0;
1620815474209;1;1887511;120;1.472;-2.133;0.000;2;3.805;69;2.737;98;6.462;255;0;0;0;0;
1620815474239;30;1887541;120;1.472;-2.133;0.000;2;3.805;69;2.737;98;6.462;255;0;0;0;0;
1620815474255;16;1887557;120;1.472;-2.133;0.000;2;3.805;69;2.737;98;6.462;255;0;0;0;0;
1620815474255;0;1887557;120;1.472;-2.133;0.000;2;3.805;69;2.737;98;6.462;255;0;0;0;0;
1620815474286;31;1887588;120;1.472;-2.133;0.000;2;3.805;69;2.737;98;6.462;255;0;0;0;0;
1620815474317;31;1887619;120;1.472;-2.132;0.000;2;3.805;69;2.737;98;6.462;255;0;0;0;0;
1620815474318;1;1887620;120;1.472;-2.132;0.000;2;3.805;69;2.737;98;6.462;255;0;0;0;0;
1620815474364;46;1887666;120;1.472;-2.132;0.000;2;3.805;69;2.737;98;6.462;255;0;0;0;0;
1620815474442;78;1887744;120;1.472;-2.132;0.000;2;3.805;69;2.748;98;6.462;255;0;0;0;0;
1620815474442;0;1887744;120;1.472;-2.132;0.000;2;3.805;69;2.748;98;6.462;255;0;0;0;0;
1620815474473;31;1887775;120;1.472;-2.132;0.000;2;3.805;69;2.737;98;6.462;255;0;0;0;0;
1620815474504;31;1887806;120;1.472;-2.132;0.000;2;3.805;69;2.737;98;6.462;255;0;0;0;0;
1620815474504;0;1887806;120;1.472;-2.132;0.000;2;3.805;69;2.737;98;6.462;255;0;0;0;0;
1620815474566;62;1887868;120;1.472;-2.131;0.000;2;3.805;69;2.737;98;6.462;255;0;0;0;0;
1620815474597;31;1887899;120;1.472;-2.131;0.000;2;3.807;69;2.748;98;6.462;255;0;0;0;0;
1620815474598;1;1887900;120;1.472;-2.131;0.000;2;3.807;69;2.748;98;6.462;255;0;0;0;0;
1620815474660;62;1887962;120;1.472;-2.131;0.000;2;3.807;69;2.748;98;6.462;255;0;0;0;0;
1620815474691;31;1887993;120;1.472;-2.131;0.000;2;3.807;69;2.748;98;6.462;255;0;0;0;0;
1620815474691;0;1887993;120;1.472;-2.131;0.000;2;3.807;69;2.748;98;6.462;255;0;0;0;0;
1620815474753;62;1888055;120;1.472;-2.131;0.000;2;3.805;69;2.737;98;6.467;255;0;0;0;0;
1620815474816;63;1888118;120;1.472;-2.131;0.000;2;3.805;69;2.737;98;6.467;255;0;0;0;0;
1620815474816;0;1888118;120;1.472;-2.131;0.000;2;3.805;69;2.737;98;6.467;255;0;0;0;0;
1620815474847;31;1888149;120;1.472;-2.131;0.000;2;3.805;69;2.737;98;6.467;255;0;0;0;0;
1620815474909;62;1888211;120;1.472;-2.131;0.000;2;3.805;69;2.737;98;6.462;255;0;0;0;0;
1620815474909;0;1888211;120;1.472;-2.131;0.000;2;3.805;69;2.737;98;6.462;255;0;0;0;0;
1620815474971;62;1888273;120;1.472;-2.131;0.000;2;3.805;69;2.737;98;6.462;255;0;0;0;0;
1620815475002;31;1888304;120;1.472;-2.131;0.000;2;3.805;69;2.742;98;6.462;255;0;0;0;0;
1620815475003;1;1888305;120;1.472;-2.131;0.000;2;3.805;69;2.742;98;6.462;255;0;0;0;0;
1620815475049;46;1888351;120;1.472;-2.131;0.000;2;3.805;69;2.742;98;6.462;255;0;0;0;0;
1620815475080;31;1888382;120;1.471;-2.131;0.000;2;3.805;69;2.737;98;6.462;255;0;0;0;0;
1620815475081;1;1888383;120;1.471;-2.131;0.000;2;3.805;69;2.737;98;6.462;255;0;0;0;0;
1620815475112;31;1888414;120;1.471;-2.131;0.000;2;3.805;69;2.737;98;6.462;255;0;0;0;0;
1620815475158;46;1888460;120;1.471;-2.131;0.000;2;3.805;69;2.737;98;6.462;255;0;0;0;0;
1620815475159;1;1888461;120;1.471;-2.131;0.000;2;3.805;69;2.737;98;6.462;255;0;0;0;0;
1620815475189;30;1888491;120;1.471;-2.131;0.000;2;3.805;69;2.737;98;6.462;255;0;0;0;0;
1620815475221;32;1888523;120;1.472;-2.131;0.000;2;3.805;69;2.742;98;6.462;255;0;0;0;0;
1620815475221;0;1888523;120;1.472;-2.131;0.000;2;3.805;69;2.742;98;6.462;255;0;0;0;0;
1620815475267;46;1888569;120;1.472;-2.131;0.000;2;3.805;69;2.742;98;6.462;255;0;0;0;0;
1620815475298;31;1888600;120;1.472;-2.131;0.000;2;3.805;69;2.742;98;6.462;255;0;0;0;0;
1620815475299;1;1888601;120;1.472;-2.131;0.000;2;3.805;69;2.742;98;6.462;255;0;0;0;0;
1620815475330;31;1888632;120;1.472;-2.131;0.000;2;3.805;69;2.742;98;6.462;255;0;0;0;0;
1620815475361;31;1888663;120;1.472;-2.131;0.000;2;3.805;69;2.742;98;6.462;255;0;0;0;0;
1620815475361;0;1888663;120;1.472;-2.131;0.000;2;3.805;69;2.742;98;6.462;255;0;0;0;0;
1620815475392;31;1888694;120;1.472;-2.131;0.000;2;3.805;69;2.742;98;6.462;255;0;0;0;0;
1620815475423;31;1888725;120;1.472;-2.131;0.000;2;3.805;69;2.742;98;6.462;255;0;0;0;0;
1620815475424;1;1888726;120;1.472;-2.131;0.000;2;3.805;69;2.742;98;6.462;255;0;0;0;0;
1620815475485;61;1888787;120;1.472;-2.131;0.000;2;3.805;69;2.742;98;6.462;255;0;0;0;0;
1620815475532;47;1888834;120;1.472;-2.131;0.000;2;3.802;69;2.742;98;6.462;255;0;0;0;0;
1620815475533;1;1888835;120;1.472;-2.131;0.000;2;3.802;69;2.742;98;6.462;255;0;0;0;0;
1620815475563;30;1888865;120;1.472;-2.131;0.000;2;3.802;69;2.742;98;6.462;255;0;0;0;0;
1620815475594;31;1888896;120;1.473;-2.131;0.000;2;3.805;69;2.748;98;6.462;255;0;0;0;0;
1620815475595;1;1888897;120;1.473;-2.131;0.000;2;3.805;69;2.748;98;6.462;255;0;0;0;0;
1620815475657;62;1888959;120;1.473;-2.131;0.000;2;3.805;69;2.748;98;6.462;255;0;0;0;0;
1620815475688;31;1888990;120;1.473;-2.131;0.000;2;3.805;69;2.748;98;6.462;255;0;0;0;0;
1620815475689;1;1888991;120;1.473;-2.131;0.000;2;3.805;69;2.748;98;6.462;255;0;0;0;0;
1620815475750;61;1889052;120;1.472;-2.132;0.000;2;3.805;69;2.748;98;6.462;255;0;0;0;0;
1620815475797;47;1889099;120;1.472;-2.132;0.000;2;3.802;69;2.742;98;6.467;255;0;0;0;0;
1620815475797;0;1889099;120;1.472;-2.132;0.000;2;3.802;69;2.742;98;6.467;255;0;0;0;0;
1620815475828;31;1889130;120;1.472;-2.132;0.000;2;3.802;69;2.742;98;6.467;255;0;0;0;0;
1620815475890;62;1889192;120;1.472;-2.132;0.000;2;3.805;69;2.748;98;6.462;255;0;0;0;0;
1620815475891;1;1889193;120;1.472;-2.132;0.000;2;3.805;69;2.748;98;6.462;255;0;0;0;0;
1620815475953;62;1889255;120;1.472;-2.133;0.000;2;3.805;69;2.748;98;6.462;255;0;0;0;0;
1620815475984;31;1889286;120;1.472;-2.133;0.000;2;3.805;69;2.742;98;6.462;255;0;0;0;0;
1620815475984;0;1889286;120;1.472;-2.133;0.000;2;3.805;69;2.742;98;6.462;255;0;0;0;0;
1620815476031;47;1889333;120;1.472;-2.133;0.000;2;3.805;69;2.742;98;6.462;255;0;0;0;0;
1620815476062;31;1889364;120;1.472;-2.133;0.000;2;3.805;69;2.742;98;6.462;255;0;0;0;0;
1620815476062;0;1889364;120;1.472;-2.133;0.000;2;3.805;69;2.742;98;6.462;255;0;0;0;0;
1620815476093;31;1889395;120;1.472;-2.133;0.000;2;3.805;69;2.742;98;6.467;255;0;0;0;0;
1620815476124;31;1889426;120;1.472;-2.133;0.000;2;3.805;69;2.742;98;6.467;255;0;0;0;0;
1620815476125;1;1889427;120;1.472;-2.133;0.000;2;3.805;69;2.742;98;6.467;255;0;0;0;0;
1620815476186;61;1889488;120;1.472;-2.133;0.000;2;3.805;69;2.742;98;6.467;255;0;0;0;0;
1620815476218;32;1889520;120;1.472;-2.133;0.000;2;3.805;69;2.742;98;6.462;255;0;0;0;0;
1620815476218;0;1889520;120;1.472;-2.133;0.000;2;3.805;69;2.742;98;6.462;255;0;0;0;0;
1620815476264;46;1889566;120;1.472;-2.133;0.000;2;3.805;69;2.742;98;6.462;255;0;0;0;0;
1620815476311;47;1889613;120;1.472;-2.133;0.000;2;3.805;69;2.742;98;6.462;255;0;0;0;0;
1620815476311;0;1889613;120;1.472;-2.133;0.000;2;3.805;69;2.742;98;6.462;255;0;0;0;0;
1620815476342;31;1889644;120;1.472;-2.133;0.000;2;3.805;69;2.748;98;6.462;255;0;0;0;0;
1620815476404;62;1889706;120;1.472;-2.133;0.000;2;3.805;69;2.748;98;6.462;255;0;0;0;0;
1620815476405;1;1889707;120;1.472;-2.133;0.000;2;3.805;69;2.748;98;6.462;255;0;0;0;0;
1620815476436;31;1889738;120;1.472;-2.133;0.000;2;3.805;69;2.748;98;6.462;255;0;0;0;0;
1620815476451;15;1889753;120;1.472;-2.133;0.000;2;3.802;69;2.737;98;6.462;255;0;0;0;0;
1620815476452;1;1889754;120;1.472;-2.133;0.000;2;3.802;69;2.737;98;6.462;255;0;0;0;0;
1620815476482;30;1889784;120;1.472;-2.133;0.000;2;3.802;69;2.737;98;6.462;255;0;0;0;0;
1620815476513;31;1889815;120;1.472;-2.133;0.000;2;3.802;69;2.737;98;6.462;255;0;0;0;0;
1620815476514;1;1889816;120;1.472;-2.133;0.000;2;3.802;69;2.737;98;6.462;255;0;0;0;0;
1620815476560;46;1889862;120;1.472;-2.133;0.000;2;3.802;69;2.737;98;6.462;255;0;0;0;0;
1620815476623;63;1889925;120;1.472;-2.132;0.000;2;3.810;69;2.742;98;6.467;255;0;0;0;0;
1620815476623;0;1889925;120;1.472;-2.132;0.000;2;3.810;69;2.742;98;6.467;255;0;0;0;0;
1620815476654;31;1889956;120;1.472;-2.132;0.000;2;3.810;69;2.742;98;6.467;255;0;0;0;0;
1620815476685;31;1889987;120;1.472;-2.132;0.000;2;3.810;69;2.742;98;6.467;255;0;0;0;0;
1620815476685;0;1889987;120;1.472;-2.132;0.000;2;3.810;69;2.742;98;6.467;255;0;0;0;0;
1620815476747;62;1890049;120;1.472;-2.132;0.000;2;3.810;69;2.742;98;6.467;255;0;0;0;0;
1620815476809;62;1890111;120;1.472;-2.132;0.000;2;3.799;69;2.742;98;6.462;255;0;0;0;0;
1620815476810;1;1890112;120;1.472;-2.132;0.000;2;3.799;69;2.742;98;6.462;255;0;0;0;0;
1620815476841;31;1890143;120;1.472;-2.132;0.000;2;3.799;69;2.742;98;6.462;255;0;0;0;0;
1620815476872;31;1890174;120;1.472;-2.132;0.000;2;3.799;69;2.737;98;6.462;255;0;0;0;0;
1620815476872;0;1890174;120;1.472;-2.132;0.000;2;3.799;69;2.737;98;6.462;255;0;0;0;0;
1620815476919;47;1890221;120;1.472;-2.132;0.000;2;3.799;69;2.737;98;6.462;255;0;0;0;0;
1620815476950;31;1890252;120;1.472;-2.132;0.000;2;3.799;69;2.737;98;6.462;255;0;0;0;0;
1620815476950;0;1890252;120;1.472;-2.132;0.000;2;3.799;69;2.737;98;6.462;255;0;0;0;0;
1620815476981;31;1890283;120;1.471;-2.133;0.000;2;3.799;69;2.742;98;6.467;255;0;0;0;0;
1620815477028;47;1890330;120;1.471;-2.133;0.000;2;3.799;69;2.742;98;6.467;255;0;0;0;0;
1620815477028;0;1890330;120;1.471;-2.133;0.000;2;3.799;69;2.742;98;6.467;255;0;0;0;0;
1620815477059;31;1890361;120;1.471;-2.133;0.000;2;3.799;69;2.742;98;6.467;255;0;0;0;0;
1620815477090;31;1890392;120;1.471;-2.134;0.000;2;3.799;69;2.742;98;6.462;255;0;0;0;0;
1620815477090;0;1890392;120;1.471;-2.134;0.000;2;3.799;69;2.742;98;6.462;255;0;0;0;0;
1620815477137;47;1890439;120;1.471;-2.134;0.000;2;3.799;69;2.742;98;6.462;255;0;0;0;0;
1620815477168;31;1890470;120;1.471;-2.134;0.000;2;3.799;69;2.742;98;6.462;255;0;0;0;0;
1620815477168;0;1890470;120;1.471;-2.134;0.000;2;3.799;69;2.742;98;6.462;255;0;0;0;0;
1620815477199;31;1890501;120;1.471;-2.134;0.000;2;3.799;69;2.742;98;6.462;255;0;0;0;0;
1620815477246;47;1890548;120;1.471;-2.134;0.000;2;3.799;69;2.737;98;6.462;255;0;0;0;0;
1620815477246;0;1890548;120;1.471;-2.134;0.000;2;3.799;69;2.737;98;6.462;255;0;0;0;0;
1620815477277;31;1890579;120;1.471;-2.134;0.000;2;3.799;69;2.737;98;6.462;255;0;0;0;0;
1620815477324;47;1890626;120;1.471;-2.134;0.000;2;3.799;69;2.737;98;6.462;255;0;0;0;0;
1620815477324;0;1890626;120;1.471;-2.134;0.000;2;3.799;69;2.737;98;6.462;255;0;0;0;0;
1620815477386;62;1890688;120;1.472;-2.134;0.000;2;3.799;69;2.742;98;6.462;255;0;0;0;0;
1620815477417;31;1890719;120;1.472;-2.134;0.000;2;3.799;69;2.742;98;6.462;255;0;0;0;0;
1620815477417;0;1890719;120;1.472;-2.134;0.000;2;3.799;69;2.742;98;6.462;255;0;0;0;0;
1620815477479;62;1890781;120;1.472;-2.134;0.000;2;3.799;69;2.742;98;6.462;255;0;0;0;0;
1620815477510;31;1890812;120;1.472;-2.134;0.000;2;3.805;69;2.742;98;6.462;255;0;0;0;0;
1620815477511;1;1890813;120;1.472;-2.134;0.000;2;3.805;69;2.742;98;6.462;255;0;0;0;0;
1620815477542;31;1890844;120;1.472;-2.134;0.000;2;3.805;69;2.742;98;6.462;255;0;0;0;0;
1620815477573;31;1890875;120;1.472;-2.134;0.000;2;3.805;69;2.742;98;6.462;255;0;0;0;0;
1620815477573;0;1890875;120;1.472;-2.134;0.000;2;3.805;69;2.742;98;6.462;255;0;0;0;0;
1620815477604;31;1890906;120;1.472;-2.134;0.000;2;3.805;69;2.742;98;6.462;255;0;0;0;0;
1620815477635;31;1890937;120;1.472;-2.134;0.000;2;3.805;69;2.742;98;6.462;255;0;0;0;0;
1620815477636;1;1890938;120;1.472;-2.134;0.000;2;3.805;69;2.742;98;6.462;255;0;0;0;0;
1620815477682;46;1890984;120;1.472;-2.134;0.000;2;3.805;69;2.742;98;6.462;255;0;0;0;0;
1620815477713;31;1891015;120;1.472;-2.134;0.000;2;3.799;69;2.737;98;6.462;255;0;0;0;0;
1620815477713;0;1891015;120;1.472;-2.134;0.000;2;3.799;69;2.737;98;6.462;255;0;0;0;0;
1620815477744;31;1891046;120;1.472;-2.134;0.000;2;3.799;69;2.737;98;6.462;255;0;0;0;0;
1620815477760;16;1891062;120;1.472;-2.134;0.000;2;3.799;69;2.737;98;6.462;255;0;0;0;0;
1620815477760;0;1891062;120;1.472;-2.134;0.000;2;3.799;69;2.737;98;6.462;255;0;0;0;0;
1620815477822;62;1891124;120;1.472;-2.134;0.000;2;3.799;69;2.737;98;6.462;255;0;0;0;0;
1620815477869;47;1891171;120;1.472;-2.133;0.000;2;3.799;69;2.737;98;6.462;255;0;0;0;0;
1620815477870;1;1891172;120;1.472;-2.133;0.000;2;3.799;69;2.737;98;6.462;255;0;0;0;0;
1620815477931;61;1891233;120;1.472;-2.133;0.000;2;3.805;69;2.742;98;6.462;255;0;0;0;0;
1620815477962;31;1891264;120;1.472;-2.133;0.000;2;3.805;69;2.742;98;6.462;255;0;0;0;0;
1620815477963;1;1891265;120;1.472;-2.133;0.000;2;3.805;69;2.742;98;6.462;255;0;0;0;0;
1620815477978;15;1891280;120;1.472;-2.133;0.000;2;3.805;69;2.742;98;6.462;255;0;0;0;0;
1620815478040;62;1891342;120;1.472;-2.133;0.000;2;3.805;69;2.742;98;6.462;255;0;0;0;0;
1620815478041;1;1891343;120;1.472;-2.133;0.000;2;3.805;69;2.742;98;6.462;255;0;0;0;0;
1620815478087;46;1891389;120;1.472;-2.133;0.000;2;3.805;69;2.742;98;6.462;255;0;0;0;0;
1620815478149;62;1891451;120;1.472;-2.132;0.000;2;3.805;69;2.737;98;6.462;255;0;0;0;0;
1620815478150;1;1891452;120;1.472;-2.132;0.000;2;3.805;69;2.737;98;6.462;255;0;0;0;0;
1620815478180;30;1891482;120;1.472;-2.132;0.000;2;3.805;69;2.737;98;6.462;255;0;0;0;0;
1620815478243;63;1891545;120;1.472;-2.132;0.000;2;3.799;69;2.737;98;6.462;255;0;0;0;0;
1620815478243;0;1891545;120;1.472;-2.132;0.000;2;3.799;69;2.737;98;6.462;255;0;0;0;0;
1620815478274;31;1891576;120;1.472;-2.132;0.000;2;3.799;69;2.737;98;6.462;255;0;0;0;0;
1620815478305;31;1891607;120;1.472;-2.132;0.000;2;3.799;69;2.737;98;6.462;255;0;0;0;0;
1620815478305;0;1891607;120;1.472;-2.132;0.000;2;3.799;69;2.737;98;6.462;255;0;0;0;0;
1620815478367;62;1891669;120;1.472;-2.132;0.000;2;3.805;69;2.742;98;6.462;255;0;0;0;0;
1620815478398;31;1891700;120;1.472;-2.132;0.000;2;3.805;69;2.742;98;6.462;255;0;0;0;0;
1620815478399;1;1891701;120;1.472;-2.132;0.000;2;3.805;69;2.742;98;6.462;255;0;0;0;0;
1620815478445;46;1891747;120;1.472;-2.132;0.000;2;3.805;69;2.742;98;6.462;255;0;0;0;0;
1620815478476;31;1891778;120;1.472;-2.132;0.000;2;3.805;69;2.737;98;6.462;255;0;0;0;0;
1620815478477;1;1891779;120;1.472;-2.132;0.000;2;3.805;69;2.737;98;6.462;255;0;0;0;0;
1620815478523;46;1891825;120;1.472;-2.132;0.000;2;3.805;69;2.737;98;6.462;255;0;0;0;0;
1620815478585;62;1891887;120;1.472;-2.131;0.000;2;3.805;69;2.737;98;6.462;255;0;0;0;0;
1620815478586;1;1891888;120;1.472;-2.131;0.000;2;3.805;69;2.737;98;6.462;255;0;0;0;0;
1620815478616;30;1891918;120;1.472;-2.131;0.000;2;3.805;69;2.737;98;6.462;255;0;0;0;0;
1620815478648;32;1891950;120;1.472;-2.131;0.000;2;3.805;69;2.737;98;6.462;255;0;0;0;0;
1620815478648;0;1891950;120;1.472;-2.131;0.000;2;3.805;69;2.737;98;6.462;255;0;0;0;0;
1620815478679;31;1891981;120;1.472;-2.131;0.000;2;3.805;69;2.737;98;6.462;255;0;0;0;0;
1620815478710;31;1892012;120;1.472;-2.131;0.000;2;3.805;69;2.737;98;6.462;255;0;0;0;0;
1620815478710;0;1892012;120;1.472;-2.131;0.000;2;3.805;69;2.737;98;6.462;255;0;0;0;0;
1620815478803;93;1892105;120;1.472;-2.131;0.000;2;3.805;69;2.737;98;6.462;255;0;0;0;0;
1620815478835;32;1892137;120;1.471;-2.132;0.000;2;3.805;69;2.737;98;6.462;255;0;0;0;0;
1620815478835;0;1892137;120;1.471;-2.132;0.000;2;3.805;69;2.737;98;6.462;255;0;0;0;0;
1620815478866;31;1892168;120;1.471;-2.132;0.000;2;3.805;69;2.745;98;6.470;255;0;0;0;0;
1620815478928;62;1892230;120;1.471;-2.132;0.000;2;3.805;69;2.745;98;6.470;255;0;0;0;0;
1620815478929;1;1892231;120;1.471;-2.132;0.000;2;3.805;69;2.745;98;6.470;255;0;0;0;0;
1620815478959;30;1892261;120;1.471;-2.132;0.000;2;3.805;69;2.742;98;6.462;255;0;0;0;0;
1620815479021;62;1892323;120;1.471;-2.132;0.000;2;3.805;69;2.742;98;6.462;255;0;0;0;0;
1620815479022;1;1892324;120;1.471;-2.132;0.000;2;3.805;69;2.742;98;6.462;255;0;0;0;0;
1620815479053;31;1892355;120;1.471;-2.132;0.000;2;3.805;69;2.742;98;6.462;255;0;0;0;0;
1620815479084;31;1892386;120;1.471;-2.132;0.000;2;3.805;69;2.742;98;6.462;255;0;0;0;0;
1620815479084;0;1892386;120;1.471;-2.132;0.000;2;3.805;69;2.742;98;6.462;255;0;0;0;0;
1620815479146;62;1892448;120;1.471;-2.132;0.000;2;3.805;69;2.742;98;6.462;255;0;0;0;0;
1620815479177;31;1892479;120;1.471;-2.132;0.000;2;3.807;69;2.737;98;6.462;255;0;0;0;0;
1620815479178;1;1892480;120;1.471;-2.132;0.000;2;3.807;69;2.737;98;6.462;255;0;0;0;0;
1620815479240;62;1892542;120;1.470;-2.132;0.000;2;3.807;69;2.737;98;6.462;255;0;0;0;0;
1620815479271;31;1892573;120;1.470;-2.132;0.000;2;3.799;69;2.742;98;6.467;255;0;0;0;0;
1620815479271;0;1892573;120;1.470;-2.132;0.000;2;3.799;69;2.742;98;6.467;255;0;0;0;0;
1620815479317;46;1892619;120;1.470;-2.132;0.000;2;3.799;69;2.742;98;6.467;255;0;0;0;0;
1620815479349;32;1892651;120;1.470;-2.132;0.000;2;3.805;69;2.742;98;6.467;255;0;0;0;0;
1620815479349;0;1892651;120;1.470;-2.132;0.000;2;3.805;69;2.742;98;6.467;255;0;0;0;0;
1620815479380;31;1892682;120;1.470;-2.132;0.000;2;3.805;69;2.742;98;6.467;255;0;0;0;0;
1620815479426;46;1892728;120;1.470;-2.132;0.000;2;3.805;69;2.742;98;6.467;255;0;0;0;0;
1620815479427;1;1892729;120;1.470;-2.132;0.000;2;3.805;69;2.742;98;6.467;255;0;0;0;0;
1620815479458;31;1892760;120;1.470;-2.132;0.000;2;3.805;69;2.742;98;6.467;255;0;0;0;0;
1620815479489;31;1892791;120;1.470;-2.132;0.000;2;3.807;69;2.737;98;6.462;255;0;0;0;0;
1620815479489;0;1892791;120;1.470;-2.132;0.000;2;3.807;69;2.737;98;6.462;255;0;0;0;0;
1620815479535;46;1892837;120;1.470;-2.132;0.000;2;3.807;69;2.737;98;6.462;255;0;0;0;0;
1620815479567;32;1892869;120;1.470;-2.132;0.000;2;3.807;69;2.737;98;6.462;255;0;0;0;0;
1620815479567;0;1892869;120;1.470;-2.132;0.000;2;3.807;69;2.737;98;6.462;255;0;0;0;0;
1620815479598;31;1892900;120;1.471;-2.132;0.000;2;3.799;69;2.742;98;6.462;255;0;0;0;0;
1620815479644;46;1892946;120;1.471;-2.132;0.000;2;3.799;69;2.742;98;6.462;255;0;0;0;0;
1620815479645;1;1892947;120;1.471;-2.132;0.000;2;3.799;69;2.742;98;6.462;255;0;0;0;0;
1620815479676;31;1892978;120;1.471;-2.132;0.000;2;3.799;69;2.742;98;6.462;255;0;0;0;0;
1620815479707;31;1893009;120;1.471;-2.132;0.000;2;3.799;69;2.742;98;6.462;255;0;0;0;0;
1620815479707;0;1893009;120;1.471;-2.132;0.000;2;3.799;69;2.742;98;6.462;255;0;0;0;0;
1620815479738;31;1893040;120;1.471;-2.132;0.000;2;3.807;69;2.737;98;6.462;255;0;0;0;0;
1620815479800;62;1893102;2;3.013;-5.494;0.000;255;0;0;0;0;;;;;;;
1620815479801;1;1893103;120;1.471;-2.132;0.000;2;3.807;69;2.737;98;6.462;255;0;0;0;0;
1620815479801;0;1893103;69;0.000;0.000;0.000;255;0;0;0;0;;;;;;;
1620815479801;0;1893103;98;7.507;0.000;0.000;255;0;0;0;0;;;;;;;
1620815479801;0;1893103;120;1.471;-2.132;0.000;2;3.807;69;2.737;98;6.462;255;0;0;0;0;
1620815479831;30;1893133;120;1.471;-2.132;0.000;2;3.807;69;2.737;98;6.462;255;0;0;0;0;
1620815479862;31;1893164;120;1.471;-2.132;0.000;2;3.807;69;2.737;98;6.462;255;0;0;0;0;
1620815479863;1;1893165;120;1.471;-2.132;0.000;2;3.807;69;2.737;98;6.462;255;0;0;0;0;
1620815479925;62;1893227;120;1.471;-2.132;0.000;2;3.807;69;2.737;98;6.462;255;0;0;0;0;
1620815479956;31;1893258;120;1.471;-2.132;0.000;2;3.799;69;2.742;98;6.467;255;0;0;0;0;
1620815479956;0;1893258;120;1.471;-2.132;0.000;2;3.799;69;2.742;98;6.467;255;0;0;0;0;
1620815480018;62;1893320;120;1.471;-2.133;0.000;2;3.799;69;2.742;98;6.467;255;0;0;0;0;
1620815480049;31;1893351;120;1.471;-2.133;0.000;2;3.807;69;2.742;98;6.462;255;0;0;0;0;
1620815480050;1;1893352;120;1.471;-2.133;0.000;2;3.807;69;2.742;98;6.462;255;0;0;0;0;
1620815480112;62;1893414;120;1.472;-2.133;0.000;2;3.807;69;2.742;98;6.462;255;0;0;0;0;
1620815480143;31;1893445;120;1.472;-2.133;0.000;2;3.799;69;2.742;98;6.462;255;0;0;0;0;
1620815480143;0;1893445;120;1.472;-2.133;0.000;2;3.799;69;2.742;98;6.462;255;0;0;0;0;
1620815480174;31;1893476;120;1.472;-2.133;0.000;2;3.799;69;2.742;98;6.462;255;0;0;0;0;
1620815480236;62;1893538;120;1.471;-2.133;0.000;2;3.799;69;2.742;98;6.462;255;0;0;0;0;
1620815480237;1;1893539;120;1.471;-2.133;0.000;2;3.799;69;2.742;98;6.462;255;0;0;0;0;
1620815480268;31;1893570;120;1.471;-2.133;0.000;2;3.802;69;2.737;98;6.467;255;0;0;0;0;
1620815480330;62;1893632;120;1.471;-2.133;0.000;2;3.802;69;2.737;98;6.467;255;0;0;0;0;
1620815480330;0;1893632;120;1.471;-2.133;0.000;2;3.802;69;2.737;98;6.467;255;0;0;0;0;
1620815480361;31;1893663;120;1.471;-2.133;0.000;2;3.802;69;2.737;98;6.467;255;0;0;0;0;
1620815480408;47;1893710;120;1.471;-2.133;0.000;2;3.802;69;2.737;98;6.467;255;0;0;0;0;
1620815480408;0;1893710;120;1.471;-2.133;0.000;2;3.802;69;2.737;98;6.467;255;0;0;0;0;
1620815480439;31;1893741;120;1.471;-2.133;0.000;2;3.802;69;2.737;98;6.467;255;0;0;0;0;
1620815480470;31;1893772;120;1.470;-2.133;0.000;2;3.807;69;2.729;98;6.462;255;0;0;0;0;
1620815480471;1;1893773;120;1.470;-2.133;0.000;2;3.807;69;2.729;98;6.462;255;0;0;0;0;
1620815480517;46;1893819;120;1.470;-2.133;0.000;2;3.807;69;2.729;98;6.462;255;0;0;0;0;
1620815480548;31;1893850;120;1.470;-2.133;0.000;2;3.807;69;2.729;98;6.462;255;0;0;0;0;
1620815480548;0;1893850;120;1.470;-2.133;0.000;2;3.807;69;2.729;98;6.462;255;0;0;0;0;
1620815480579;31;1893881;120;1.470;-2.133;0.000;2;3.807;69;2.729;98;6.462;255;0;0;0;0;
1620815480626;47;1893928;120;1.470;-2.132;0.000;2;3.807;69;2.742;98;6.462;255;0;0;0;0;
1620815480626;0;1893928;120;1.470;-2.132;0.000;2;3.807;69;2.742;98;6.462;255;0;0;0;0;
1620815480673;47;1893975;120;1.470;-2.132;0.000;2;3.807;69;2.742;98;6.462;255;0;0;0;0;
1620815480719;46;1894021;120;1.470;-2.132;0.000;2;3.807;69;2.742;98;6.462;255;0;0;0;0;
1620815480720;1;1894022;120;1.470;-2.132;0.000;2;3.807;69;2.742;98;6.462;255;0;0;0;0;
1620815480813;93;1894115;120;1.469;-2.132;0.000;2;3.799;69;2.737;98;6.467;255;0;0;0;0;
1620815480844;31;1894146;120;1.470;-2.132;0.000;2;3.799;69;2.737;98;6.467;255;0;0;0;0;
1620815480844;0;1894146;120;1.470;-2.132;0.000;2;3.799;69;2.737;98;6.467;255;0;0;0;0;
1620815480875;31;1894177;120;1.470;-2.132;0.000;2;3.799;69;2.737;98;6.467;255;0;0;0;0;
1620815480922;47;1894224;120;1.470;-2.132;0.000;2;3.807;69;2.737;98;6.462;255;0;0;0;0;
1620815480922;0;1894224;120;1.470;-2.132;0.000;2;3.807;69;2.737;98;6.462;255;0;0;0;0;
1620815480953;31;1894255;120;1.470;-2.132;0.000;2;3.807;69;2.737;98;6.462;255;0;0;0;0;
1620815480984;31;1894286;120;1.471;-2.131;0.000;2;3.807;69;2.737;98;6.462;255;0;0;0;0;
1620815480985;1;1894287;120;1.471;-2.131;0.000;2;3.807;69;2.737;98;6.462;255;0;0;0;0;
1620815481015;30;1894317;120;1.471;-2.131;0.000;2;3.807;69;2.737;98;6.462;255;0;0;0;0;
1620815481046;31;1894348;120;1.471;-2.131;0.000;2;3.807;69;2.737;98;6.462;255;0;0;0;0;
1620815481047;1;1894349;120;1.471;-2.131;0.000;2;3.807;69;2.737;98;6.462;255;0;0;0;0;
1620815481109;62;1894411;120;1.471;-2.131;0.000;2;3.807;69;2.737;98;6.462;255;0;0;0;0;
1620815481140;31;1894442;120;1.471;-2.131;0.000;2;3.807;69;2.737;98;6.462;255;0;0;0;0;
1620815481140;0;1894442;120;1.471;-2.131;0.000;2;3.807;69;2.737;98;6.462;255;0;0;0;0;
1620815481187;47;1894489;120;1.471;-2.131;0.000;2;3.807;69;2.737;98;6.462;255;0;0;0;0;
1620815481218;31;1894520;120;1.471;-2.131;0.000;2;3.807;69;2.737;98;6.462;255;0;0;0;0;
1620815481218;0;1894520;120;1.471;-2.131;0.000;2;3.807;69;2.737;98;6.462;255;0;0;0;0;
1620815481249;31;1894551;120;1.471;-2.131;0.000;2;3.805;69;2.742;98;6.462;255;0;0;0;0;
1620815481281;32;1894583;120;1.471;-2.131;0.000;2;3.805;69;2.742;98;6.462;255;0;0;0;0;
1620815481281;0;1894583;120;1.471;-2.131;0.000;2;3.805;69;2.742;98;6.462;255;0;0;0;0;
1620815481342;61;1894644;120;1.471;-2.131;0.000;2;3.805;69;2.742;98;6.462;255;0;0;0;0;
1620815481374;32;1894676;120;1.472;-2.130;0.000;2;3.802;69;2.737;98;6.462;255;0;0;0;0;
1620815481374;0;1894676;120;1.472;-2.130;0.000;2;3.802;69;2.737;98;6.462;255;0;0;0;0;
1620815481436;62;1894738;120;1.472;-2.130;0.000;2;3.802;69;2.737;98;6.462;255;0;0;0;0;
1620815481467;31;1894769;120;1.472;-2.130;0.000;2;3.802;69;2.737;98;6.462;255;0;0;0;0;
1620815481467;0;1894769;120;1.472;-2.130;0.000;2;3.802;69;2.737;98;6.462;255;0;0;0;0;
1620815481514;47;1894816;120;1.472;-2.131;0.000;2;3.802;69;2.737;98;6.462;255;0;0;0;0;
1620815481560;46;1894862;120;1.472;-2.131;0.000;2;3.802;69;2.737;98;6.462;255;0;0;0;0;
1620815481561;1;1894863;120;1.472;-2.131;0.000;2;3.802;69;2.737;98;6.462;255;0;0;0;0;
1620815481592;31;1894894;120;1.472;-2.131;0.000;2;3.802;69;2.737;98;6.462;255;0;0;0;0;
1620815481654;62;1894956;120;1.472;-2.131;0.000;2;3.802;69;2.742;98;6.462;255;0;0;0;0;
1620815481654;0;1894956;120;1.472;-2.131;0.000;2;3.802;69;2.742;98;6.462;255;0;0;0;0;
1620815481685;31;1894987;120;1.472;-2.131;0.000;2;3.802;69;2.742;98;6.462;255;0;0;0;0;
1620815481747;62;1895049;120;1.472;-2.131;0.000;2;3.802;69;2.742;98;6.462;255;0;0;0;0;
1620815481748;1;1895050;120;1.472;-2.131;0.000;2;3.802;69;2.742;98;6.462;255;0;0;0;0;
1620815481810;62;1895112;120;1.472;-2.131;0.000;2;3.802;69;2.737;98;6.462;255;0;0;0;0;
1620815481841;31;1895143;120;1.472;-2.131;0.000;2;3.802;69;2.737;98;6.462;255;0;0;0;0;
1620815481841;0;1895143;120;1.472;-2.131;0.000;2;3.802;69;2.737;98;6.462;255;0;0;0;0;
1620815481903;62;1895205;120;1.472;-2.132;0.000;2;3.802;69;2.742;98;6.462;255;0;0;0;0;
1620815481919;16;1895221;120;1.472;-2.132;0.000;2;3.802;69;2.742;98;6.462;255;0;0;0;0;
1620815481919;0;1895221;120;1.472;-2.132;0.000;2;3.802;69;2.742;98;6.462;255;0;0;0;0;
1620815481950;31;1895252;120;1.472;-2.132;0.000;2;3.802;69;2.742;98;6.462;255;0;0;0;0;
1620815482012;62;1895314;120;1.471;-2.132;0.000;2;3.802;69;2.742;98;6.462;255;0;0;0;0;
1620815482013;1;1895315;120;1.471;-2.132;0.000;2;3.802;69;2.742;98;6.462;255;0;0;0;0;
1620815482043;30;1895345;120;1.471;-2.132;0.000;2;3.802;69;2.737;98;6.467;255;0;0;0;0;
1620815482106;63;1895408;120;1.471;-2.132;0.000;2;3.802;69;2.737;98;6.467;255;0;0;0;0;
1620815482106;0;1895408;120;1.471;-2.132;0.000;2;3.802;69;2.737;98;6.467;255;0;0;0;0;
1620815482137;31;1895439;120;1.471;-2.132;0.000;2;3.796;69;2.737;98;6.462;255;0;0;0;0;
1620815482168;31;1895470;120;1.471;-2.132;0.000;2;3.796;69;2.737;98;6.462;255;0;0;0;0;
1620815482168;0;1895470;120;1.471;-2.132;0.000;2;3.796;69;2.737;98;6.462;255;0;0;0;0;
1620815482230;62;1895532;120;1.471;-2.132;0.000;2;3.796;69;2.737;98;6.462;255;0;0;0;0;
1620815482277;47;1895579;120;1.471;-2.132;0.000;2;3.807;69;2.742;98;6.462;255;0;0;0;0;
1620815482278;1;1895580;120;1.471;-2.132;0.000;2;3.807;69;2.742;98;6.462;255;0;0;0;0;
1620815482324;46;1895626;120;1.471;-2.132;0.000;2;3.807;69;2.742;98;6.462;255;0;0;0;0;
1620815482355;31;1895657;120;1.471;-2.132;0.000;2;3.807;69;2.737;98;6.462;255;0;0;0;0;
1620815482355;0;1895657;120;1.471;-2.132;0.000;2;3.807;69;2.737;98;6.462;255;0;0;0;0;
1620815482386;31;1895688;120;1.471;-2.132;0.000;2;3.807;69;2.737;98;6.462;255;0;0;0;0;
1620815482448;62;1895750;120;1.471;-2.132;0.000;2;3.807;69;2.737;98;6.462;255;0;0;0;0;
1620815482449;1;1895751;120;1.471;-2.132;0.000;2;3.807;69;2.737;98;6.462;255;0;0;0;0;
1620815482511;62;1895813;120;1.471;-2.132;0.000;2;3.799;69;2.742;98;6.467;255;0;0;0;0;
1620815482542;31;1895844;120;1.471;-2.132;0.000;2;3.799;69;2.742;98;6.467;255;0;0;0;0;
1620815482542;0;1895844;120;1.471;-2.132;0.000;2;3.799;69;2.742;98;6.467;255;0;0;0;0;
1620815482573;31;1895875;120;1.471;-2.132;0.000;2;3.799;69;2.742;98;6.467;255;0;0;0;0;
1620815482635;62;1895937;120;1.471;-2.132;0.000;2;3.805;69;2.737;98;6.462;255;0;0;0;0;
1620815482636;1;1895938;120;1.471;-2.132;0.000;2;3.805;69;2.737;98;6.462;255;0;0;0;0;
1620815482666;30;1895968;120;1.471;-2.132;0.000;2;3.805;69;2.737;98;6.462;255;0;0;0;0;
1620815482713;47;1896015;120;1.471;-2.132;0.000;2;3.805;69;2.737;98;6.462;255;0;0;0;0;
1620815482714;1;1896016;120;1.471;-2.132;0.000;2;3.805;69;2.737;98;6.462;255;0;0;0;0;
1620815482744;30;1896046;120;1.471;-2.132;0.000;2;3.805;69;2.737;98;6.462;255;0;0;0;0;
1620815482807;63;1896109;120;1.471;-2.132;0.000;2;3.805;69;2.737;98;6.462;255;0;0;0;0;
1620815482807;0;1896109;120;1.471;-2.132;0.000;2;3.805;69;2.737;98;6.462;255;0;0;0;0;
1620815482838;31;1896140;120;1.471;-2.132;0.000;2;3.805;69;2.737;98;6.462;255;0;0;0;0;
1620815482900;62;1896202;120;1.471;-2.132;0.000;2;3.799;69;2.737;98;6.462;255;0;0;0;0;
1620815482901;1;1896203;120;1.471;-2.132;0.000;2;3.799;69;2.737;98;6.462;255;0;0;0;0;
1620815482962;61;1896264;120;1.471;-2.132;0.000;2;3.799;69;2.737;98;6.462;255;0;0;0;0;
1620815482994;32;1896296;120;1.471;-2.132;0.000;2;3.799;69;2.737;98;6.462;255;0;0;0;0;
1620815482994;0;1896296;120;1.471;-2.132;0.000;2;3.799;69;2.737;98;6.462;255;0;0;0;0;
1620815483025;31;1896327;120;1.471;-2.132;0.000;2;3.799;69;2.737;98;6.462;255;0;0;0;0;
1620815483056;31;1896358;120;1.471;-2.132;0.000;2;3.799;69;2.737;98;6.462;255;0;0;0;0;
1620815483056;0;1896358;120;1.471;-2.132;0.000;2;3.799;69;2.737;98;6.462;255;0;0;0;0;
1620815483118;62;1896420;120;1.472;-2.132;0.000;2;3.799;69;2.737;98;6.462;255;0;0;0;0;
1620815483149;31;1896451;120;1.472;-2.132;0.000;2;3.807;69;2.737;98;6.462;255;0;0;0;0;
1620815483150;1;1896452;120;1.472;-2.132;0.000;2;3.807;69;2.737;98;6.462;255;0;0;0;0;
1620815483212;62;1896514;120;1.472;-2.132;0.000;2;3.807;69;2.737;98;6.462;255;0;0;0;0;
1620815483243;31;1896545;120;1.472;-2.132;0.000;2;3.799;69;2.742;98;6.462;255;0;0;0;0;
1620815483243;0;1896545;120;1.472;-2.132;0.000;2;3.799;69;2.742;98;6.462;255;0;0;0;0;
1620815483305;62;1896607;120;1.472;-2.132;0.000;2;3.799;69;2.742;98;6.462;255;0;0;0;0;
1620815483337;32;1896639;120;1.472;-2.132;0.000;2;3.799;69;2.742;98;6.462;255;0;0;0;0;
1620815483338;1;1896640;120;1.472;-2.132;0.000;2;3.799;69;2.742;98;6.462;255;0;0;0;0;
1620815483399;61;1896701;120;1.472;-2.133;0.000;2;3.799;69;2.742;98;6.462;255;0;0;0;0;
1620815483430;31;1896732;120;1.472;-2.133;0.000;2;3.799;69;2.742;98;6.462;255;0;0;0;0;
1620815483430;0;1896732;120;1.472;-2.133;0.000;2;3.799;69;2.742;98;6.462;255;0;0;0;0;
1620815483445;15;1896747;120;1.472;-2.133;0.000;2;3.799;69;2.742;98;6.462;255;0;0;0;0;
1620815483508;63;1896810;120;1.472;-2.133;0.000;2;3.799;69;2.742;98;6.462;255;0;0;0;0;
1620815483508;0;1896810;120;1.472;-2.133;0.000;2;3.799;69;2.742;98;6.462;255;0;0;0;0;
1620815483539;31;1896841;120;1.472;-2.133;0.000;2;3.799;69;2.748;98;6.462;255;0;0;0;0;
1620815483586;47;1896888;120;1.472;-2.133;0.000;2;3.799;69;2.748;98;6.462;255;0;0;0;0;
1620815483586;0;1896888;120;1.472;-2.133;0.000;2;3.799;69;2.748;98;6.462;255;0;0;0;0;
1620815483617;31;1896919;120;1.472;-2.133;0.000;2;3.805;69;2.737;98;6.462;255;0;0;0;0;
1620815483648;31;1896950;120;1.472;-2.133;0.000;2;3.805;69;2.737;98;6.462;255;0;0;0;0;
1620815483648;0;1896950;120;1.472;-2.133;0.000;2;3.805;69;2.737;98;6.462;255;0;0;0;0;
1620815483695;47;1896997;120;1.472;-2.133;0.000;2;3.805;69;2.737;98;6.462;255;0;0;0;0;
1620815483726;31;1897028;120;1.472;-2.133;0.000;2;3.805;69;2.737;98;6.462;255;0;0;0;0;
1620815483726;0;1897028;120;1.472;-2.133;0.000;2;3.805;69;2.737;98;6.462;255;0;0;0;0;
1620815483757;31;1897059;120;1.472;-2.133;0.000;2;3.802;69;2.737;98;6.462;255;0;0;0;0;
1620815483804;47;1897106;120;1.472;-2.133;0.000;2;3.802;69;2.737;98;6.462;255;0;0;0;0;
1620815483804;0;1897106;120;1.472;-2.133;0.000;2;3.802;69;2.737;98;6.462;255;0;0;0;0;
1620815483866;62;1897168;120;1.472;-2.133;0.000;2;3.802;69;2.737;98;6.462;255;0;0;0;0;
1620815483913;47;1897215;120;1.472;-2.133;0.000;2;3.802;69;2.737;98;6.462;255;0;0;0;0;
1620815483913;0;1897215;120;1.472;-2.133;0.000;2;3.802;69;2.737;98;6.462;255;0;0;0;0;
1620815483944;31;1897246;120;1.472;-2.133;0.000;2;3.802;69;2.737;98;6.462;255;0;0;0;0;
1620815483975;31;1897277;120;1.472;-2.133;0.000;2;3.802;69;2.737;98;6.462;255;0;0;0;0;
1620815483975;0;1897277;120;1.472;-2.133;0.000;2;3.802;69;2.737;98;6.462;255;0;0;0;0;
1620815484022;47;1897324;120;1.472;-2.133;0.000;2;3.802;69;2.742;98;6.462;255;0;0;0;0;
1620815484053;31;1897355;120;1.472;-2.133;0.000;2;3.802;69;2.742;98;6.462;255;0;0;0;0;
1620815484053;0;1897355;120;1.472;-2.133;0.000;2;3.802;69;2.742;98;6.462;255;0;0;0;0;
1620815484084;31;1897386;120;1.472;-2.133;0.000;2;3.802;69;2.742;98;6.462;255;0;0;0;0;
1620815484115;31;1897417;120;1.472;-2.132;0.000;2;3.805;69;2.737;98;6.462;255;0;0;0;0;
1620815484116;1;1897418;120;1.472;-2.132;0.000;2;3.805;69;2.737;98;6.462;255;0;0;0;0;
1620815484146;30;1897448;120;1.472;-2.132;0.000;2;3.805;69;2.737;98;6.462;255;0;0;0;0;
1620815484209;63;1897511;120;1.472;-2.132;0.000;2;3.805;69;2.737;98;6.462;255;0;0;0;0;
1620815484209;0;1897511;120;1.472;-2.132;0.000;2;3.805;69;2.737;98;6.462;255;0;0;0;0;
1620815484240;31;1897542;120;1.472;-2.132;0.000;2;3.805;69;2.742;98;6.462;255;0;0;0;0;
1620815484302;62;1897604;120;1.472;-2.132;0.000;2;3.805;69;2.742;98;6.462;255;0;0;0;0;
1620815484303;1;1897605;120;1.472;-2.132;0.000;2;3.805;69;2.742;98;6.462;255;0;0;0;0;
1620815484333;30;1897635;120;1.472;-2.132;0.000;2;3.805;69;2.742;98;6.462;255;0;0;0;0;
1620815484396;63;1897698;120;1.472;-2.132;0.000;2;3.805;69;2.742;98;6.462;255;0;0;0;0;
1620815484396;0;1897698;120;1.472;-2.132;0.000;2;3.805;69;2.742;98;6.462;255;0;0;0;0;
1620815484427;31;1897729;120;1.472;-2.132;0.000;2;3.802;69;2.742;98;6.462;255;0;0;0;0;
1620815484489;62;1897791;120;1.472;-2.132;0.000;2;3.802;69;2.742;98;6.462;255;0;0;0;0;
1620815484490;1;1897792;120;1.472;-2.132;0.000;2;3.802;69;2.742;98;6.462;255;0;0;0;0;
1620815484520;30;1897822;120;1.472;-2.132;0.000;2;3.805;69;2.737;98;6.462;255;0;0;0;0;
1620815484551;31;1897853;120;1.472;-2.132;0.000;2;3.805;69;2.737;98;6.462;255;0;0;0;0;
1620815484552;1;1897854;120;1.472;-2.132;0.000;2;3.805;69;2.737;98;6.462;255;0;0;0;0;
1620815484614;62;1897916;120;1.472;-2.132;0.000;2;3.805;69;2.737;98;6.462;255;0;0;0;0;
1620815484645;31;1897947;120;1.472;-2.132;0.000;2;3.799;69;2.737;98;6.462;255;0;0;0;0;
1620815484645;0;1897947;120;1.472;-2.132;0.000;2;3.799;69;2.737;98;6.462;255;0;0;0;0;
1620815484707;62;1898009;120;1.472;-2.132;0.000;2;3.799;69;2.737;98;6.462;255;0;0;0;0;
1620815484738;31;1898040;120;1.472;-2.132;0.000;2;3.799;69;2.742;98;6.462;255;0;0;0;0;
1620815484739;1;1898041;120;1.472;-2.132;0.000;2;3.799;69;2.742;98;6.462;255;0;0;0;0;
1620815484789;50;1898091;120;1.472;-2.132;0.000;2;3.799;69;2.742;98;6.462;255;0;0;0;0;
1620815484847;58;1898149;120;1.472;-2.132;0.000;2;3.799;69;2.742;98;6.462;255;0;0;0;0;
1620815484848;1;1898150;120;1.472;-2.132;0.000;2;3.799;69;2.742;98;6.462;255;0;0;0;0;
1620815484894;46;1898196;120;1.472;-2.133;0.000;2;3.799;69;2.742;98;6.462;255;0;0;0;0;
1620815484941;47;1898243;120;1.472;-2.133;0.000;2;3.799;69;2.742;98;6.462;255;0;0;0;0;
1620815484941;0;1898243;120;1.472;-2.133;0.000;2;3.799;69;2.742;98;6.462;255;0;0;0;0;
1620815484972;31;1898274;120;1.472;-2.133;0.000;2;3.799;69;2.742;98;6.462;255;0;0;0;0;
1620815485034;62;1898336;120;1.472;-2.134;0.000;2;3.799;69;2.737;98;6.462;255;0;0;0;0;
1620815485035;1;1898337;120;1.472;-2.134;0.000;2;3.799;69;2.737;98;6.462;255;0;0;0;0;
1620815485065;30;1898367;120;1.472;-2.134;0.000;2;3.799;69;2.737;98;6.462;255;0;0;0;0;
1620815485112;47;1898414;120;1.472;-2.134;0.000;2;3.799;69;2.737;98;6.462;255;0;0;0;0;
1620815485113;1;1898415;120;1.472;-2.134;0.000;2;3.799;69;2.737;98;6.462;255;0;0;0;0;
1620815485143;30;1898445;120;1.472;-2.134;0.000;2;3.799;69;2.737;98;6.462;255;0;0;0;0;
1620815485174;31;1898476;120;1.472;-2.134;0.000;2;3.799;69;2.737;98;6.462;255;0;0;0;0;
1620815485175;1;1898477;120;1.472;-2.134;0.000;2;3.799;69;2.737;98;6.462;255;0;0;0;0;
1620815485206;31;1898508;120;1.472;-2.134;0.000;2;3.799;69;2.737;98;6.462;255;0;0;0;0;
1620815485237;31;1898539;120;1.472;-2.134;0.000;2;3.799;69;2.737;98;6.462;255;0;0;0;0;
1620815485237;0;1898539;120;1.472;-2.134;0.000;2;3.799;69;2.737;98;6.462;255;0;0;0;0;
1620815485299;62;1898601;120;1.472;-2.134;0.000;2;3.799;69;2.737;98;6.462;255;0;0;0;0;
1620815485330;31;1898632;120;1.472;-2.134;0.000;2;3.799;69;2.737;98;6.462;255;0;0;0;0;
1620815485331;1;1898633;120;1.472;-2.134;0.000;2;3.799;69;2.737;98;6.462;255;0;0;0;0;
1620815485393;62;1898695;120;1.472;-2.134;0.000;2;3.799;69;2.737;98;6.462;255;0;0;0;0;
1620815485424;31;1898726;120;1.472;-2.134;0.000;2;3.799;69;2.737;98;6.462;255;0;0;0;0;
1620815485424;0;1898726;120;1.472;-2.134;0.000;2;3.799;69;2.737;98;6.462;255;0;0;0;0;
1620815485486;62;1898788;120;1.472;-2.134;0.000;2;3.799;69;2.737;98;6.462;255;0;0;0;0;
1620815485517;31;1898819;120;1.472;-2.134;0.000;2;3.799;69;2.737;98;6.462;255;0;0;0;0;
1620815485518;1;1898820;120;1.472;-2.134;0.000;2;3.799;69;2.737;98;6.462;255;0;0;0;0;
1620815485579;61;1898881;120;1.472;-2.134;0.000;2;3.799;69;2.737;98;6.462;255;0;0;0;0;
1620815485611;32;1898913;120;1.472;-2.134;0.000;2;3.799;69;2.737;98;6.462;255;0;0;0;0;
1620815485611;0;1898913;120;1.472;-2.134;0.000;2;3.799;69;2.737;98;6.462;255;0;0;0;0;
1620815485642;31;1898944;120;1.472;-2.133;0.000;2;3.805;69;2.742;98;6.462;255;0;0;0;0;
1620815485704;62;1899006;120;1.472;-2.133;0.000;2;3.805;69;2.742;98;6.462;255;0;0;0;0;
1620815485705;1;1899007;120;1.472;-2.133;0.000;2;3.805;69;2.742;98;6.462;255;0;0;0;0;
1620815485735;30;1899037;120;1.472;-2.133;0.000;2;3.805;69;2.742;98;6.462;255;0;0;0;0;
1620815485798;63;1899100;120;1.472;-2.133;0.000;2;3.807;69;2.737;98;6.462;255;0;0;0;0;
1620815485798;0;1899100;120;1.472;-2.133;0.000;2;3.807;69;2.737;98;6.462;255;0;0;0;0;
1620815485844;46;1899146;120;1.472;-2.133;0.000;2;3.807;69;2.737;98;6.462;255;0;0;0;0;
1620815485907;63;1899209;120;1.472;-2.133;0.000;2;3.799;69;2.742;98;6.462;255;0;0;0;0;
1620815485907;0;1899209;120;1.472;-2.133;0.000;2;3.799;69;2.742;98;6.462;255;0;0;0;0;
1620815485938;31;1899240;120;1.472;-2.133;0.000;2;3.799;69;2.742;98;6.462;255;0;0;0;0;
1620815485984;46;1899286;120;1.472;-2.133;0.000;2;3.799;69;2.742;98;6.462;255;0;0;0;0;
1620815485985;1;1899287;120;1.472;-2.133;0.000;2;3.799;69;2.742;98;6.462;255;0;0;0;0;
1620815486016;31;1899318;120;1.472;-2.132;0.000;2;3.799;69;2.737;98;6.462;255;0;0;0;0;
1620815486047;31;1899349;120;1.472;-2.132;0.000;2;3.799;69;2.737;98;6.462;255;0;0;0;0;
1620815486047;0;1899349;120;1.472;-2.132;0.000;2;3.799;69;2.737;98;6.462;255;0;0;0;0;
1620815486109;62;1899411;120;1.472;-2.132;0.000;2;3.799;69;2.737;98;6.462;255;0;0;0;0;
1620815486140;31;1899442;120;1.472;-2.132;0.000;2;3.805;69;2.742;98;6.462;255;0;0;0;0;
1620815486141;1;1899443;120;1.472;-2.132;0.000;2;3.805;69;2.742;98;6.462;255;0;0;0;0;
1620815486171;30;1899473;120;1.472;-2.132;0.000;2;3.805;69;2.742;98;6.462;255;0;0;0;0;
1620815486234;63;1899536;120;1.472;-2.132;0.000;2;3.805;69;2.742;98;6.462;255;0;0;0;0;
1620815486234;0;1899536;120;1.472;-2.132;0.000;2;3.805;69;2.742;98;6.462;255;0;0;0;0;
1620815486265;31;1899567;120;1.472;-2.132;0.000;2;3.805;69;2.737;98;6.462;255;0;0;0;0;
1620815486296;31;1899598;120;1.472;-2.132;0.000;2;3.805;69;2.737;98;6.462;255;0;0;0;0;
1620815486296;0;1899598;120;1.472;-2.132;0.000;2;3.805;69;2.737;98;6.462;255;0;0;0;0;
1620815486327;31;1899629;120;1.472;-2.132;0.000;2;3.805;69;2.737;98;6.462;255;0;0;0;0;
1620815486358;31;1899660;120;1.472;-2.132;0.000;2;3.805;69;2.737;98;6.462;255;0;0;0;0;
1620815486359;1;1899661;120;1.472;-2.132;0.000;2;3.805;69;2.737;98;6.462;255;0;0;0;0;
1620815486381;22;1899683;120;1.472;-2.132;0.000;2;3.805;69;2.737;98;6.462;255;0;0;0;0;
1620815486389;8;1899691;120;1.472;-2.132;0.000;2;3.805;69;2.737;98;6.462;255;0;0;0;0;
1620815486390;1;1899692;120;1.472;-2.132;0.000;2;3.805;69;2.737;98;6.462;255;0;0;0;0;
1620815486421;31;1899723;120;1.472;-2.132;0.000;2;3.805;69;2.737;98;6.462;255;0;0;0;0;
1620815486483;62;1899785;120;1.472;-2.132;0.000;2;3.805;69;2.737;98;6.462;255;0;0;0;0;
1620815486483;0;1899785;120;1.472;-2.132;0.000;2;3.805;69;2.737;98;6.462;255;0;0;0;0;
1620815486514;31;1899816;120;1.472;-2.131;0.000;2;3.805;69;2.737;98;6.462;255;0;0;0;0;
1620815486545;31;1899847;120;1.472;-2.131;0.000;2;3.805;69;2.737;98;6.462;255;0;0;0;0;
1620815486546;1;1899848;120;1.472;-2.131;0.000;2;3.805;69;2.737;98;6.462;255;0;0;0;0;
1620815486608;62;1899910;120;1.472;-2.131;0.000;2;3.805;69;2.737;98;6.462;255;0;0;0;0;
1620815486654;46;1899956;120;1.472;-2.131;0.000;2;3.805;69;2.742;98;6.462;255;0;0;0;0;
1620815486655;1;1899957;120;1.472;-2.131;0.000;2;3.805;69;2.742;98;6.462;255;0;0;0;0;
1620815486685;30;1899987;120;1.472;-2.131;0.000;2;3.805;69;2.742;98;6.462;255;0;0;0;0;
1620815486717;32;1900019;120;1.472;-2.131;0.000;2;3.805;69;2.742;98;6.462;255;0;0;0;0;
1620815486717;0;1900019;120;1.472;-2.131;0.000;2;3.805;69;2.742;98;6.462;255;0;0;0;0;
1620815486748;31;1900050;120;1.472;-2.131;0.000;2;3.802;69;2.742;98;6.462;255;0;0;0;0;
1620815486810;62;1900112;120;1.472;-2.131;0.000;2;3.802;69;2.742;98;6.462;255;0;0;0;0;
1620815486811;1;1900113;120;1.472;-2.131;0.000;2;3.802;69;2.742;98;6.462;255;0;0;0;0;
1620815486872;61;1900174;120;1.472;-2.131;0.000;2;3.802;69;2.742;98;6.462;255;0;0;0;0;
1620815486904;32;1900206;120;1.472;-2.131;0.000;2;3.805;69;2.742;98;6.462;255;0;0;0;0;
1620815486904;0;1900206;120;1.472;-2.131;0.000;2;3.805;69;2.742;98;6.462;255;0;0;0;0;
1620815486935;31;1900237;120;1.472;-2.131;0.000;2;3.805;69;2.742;98;6.462;255;0;0;0;0;
1620815486981;46;1900283;120;1.472;-2.131;0.000;2;3.805;69;2.742;98;6.462;255;0;0;0;0;
1620815486982;1;1900284;120;1.472;-2.131;0.000;2;3.805;69;2.742;98;6.462;255;0;0;0;0;
1620815487013;31;1900315;120;1.472;-2.131;0.000;2;3.805;69;2.737;98;6.462;255;0;0;0;0;
1620815487044;31;1900346;120;1.472;-2.131;0.000;2;3.805;69;2.737;98;6.462;255;0;0;0;0;
1620815487044;0;1900346;120;1.472;-2.131;0.000;2;3.805;69;2.737;98;6.462;255;0;0;0;0;
1620815487090;46;1900392;120;1.472;-2.131;0.000;2;3.805;69;2.737;98;6.462;255;0;0;0;0;
1620815487122;32;1900424;120;1.472;-2.132;0.000;2;3.799;69;2.737;98;6.462;255;0;0;0;0;
1620815487122;0;1900424;120;1.472;-2.132;0.000;2;3.799;69;2.737;98;6.462;255;0;0;0;0;
1620815487153;31;1900455;120;1.472;-2.132;0.000;2;3.799;69;2.737;98;6.462;255;0;0;0;0;
1620815487200;47;1900502;120;1.472;-2.132;0.000;2;3.799;69;2.737;98;6.462;255;0;0;0;0;
1620815487200;0;1900502;120;1.472;-2.132;0.000;2;3.799;69;2.737;98;6.462;255;0;0;0;0;
1620815487231;31;1900533;120;1.472;-2.132;0.000;2;3.799;69;2.737;98;6.462;255;0;0;0;0;
1620815487262;31;1900564;120;1.472;-2.132;0.000;2;3.805;69;2.742;98;6.462;255;0;0;0;0;
1620815487262;0;1900564;120;1.472;-2.132;0.000;2;3.805;69;2.742;98;6.462;255;0;0;0;0;
1620815487309;47;1900611;120;1.472;-2.132;0.000;2;3.805;69;2.742;98;6.462;255;0;0;0;0;
1620815487340;31;1900642;120;1.472;-2.132;0.000;2;3.805;69;2.742;98;6.462;255;0;0;0;0;
1620815487340;0;1900642;120;1.472;-2.132;0.000;2;3.805;69;2.742;98;6.462;255;0;0;0;0;
1620815487371;31;1900673;120;1.472;-2.132;0.000;2;3.805;69;2.737;98;6.462;255;0;0;0;0;
1620815487386;15;1900688;120;1.472;-2.132;0.000;2;3.805;69;2.737;98;6.462;255;0;0;0;0;
1620815487387;1;1900689;120;1.472;-2.132;0.000;2;3.805;69;2.737;98;6.462;255;0;0;0;0;
1620815487449;62;1900751;120;1.472;-2.132;0.000;2;3.805;69;2.737;98;6.462;255;0;0;0;0;
1620815487480;31;1900782;120;1.472;-2.132;0.000;2;3.805;69;2.737;98;6.462;255;0;0;0;0;
1620815487480;0;1900782;120;1.472;-2.132;0.000;2;3.805;69;2.737;98;6.462;255;0;0;0;0;
1620815487511;31;1900813;120;1.472;-2.132;0.000;2;3.805;69;2.742;98;6.462;255;0;0;0;0;
1620815487542;31;1900844;120;1.472;-2.132;0.000;2;3.805;69;2.742;98;6.462;255;0;0;0;0;
1620815487543;1;1900845;120;1.472;-2.132;0.000;2;3.805;69;2.742;98;6.462;255;0;0;0;0;
1620815487745;202;1901047;120;1.472;-2.132;0.000;2;3.805;69;2.742;98;6.462;255;0;0;0;0;
1620815487807;62;1901109;120;1.472;-2.132;0.000;2;3.805;69;2.742;98;6.462;255;0;0;0;0;
1620815487808;1;1901110;120;1.472;-2.132;0.000;2;3.805;69;2.742;98;6.462;255;0;0;0;0;
1620815487823;15;1901125;120;1.472;-2.132;0.000;2;3.805;69;2.742;98;6.462;255;0;0;0;0;
1620815487885;62;1901187;120;1.472;-2.132;0.000;2;3.805;69;2.742;98;6.462;255;0;0;0;0;
1620815487885;0;1901187;120;1.472;-2.132;0.000;2;3.805;69;2.742;98;6.462;255;0;0;0;0;
1620815487917;32;1901219;120;1.472;-2.132;0.000;2;3.799;69;2.737;98;6.462;255;0;0;0;0;
1620815487932;15;1901234;120;1.472;-2.132;0.000;2;3.799;69;2.737;98;6.462;255;0;0;0;0;
1620815487932;0;1901234;120;1.472;-2.132;0.000;2;3.799;69;2.737;98;6.462;255;0;0;0;0;
1620815487994;62;1901296;120;1.472;-2.132;0.000;2;3.799;69;2.737;98;6.462;255;0;0;0;0;
1620815488025;31;1901327;120;1.472;-2.133;0.000;2;3.799;69;2.742;98;6.462;255;0;0;0;0;
1620815488026;1;1901328;120;1.472;-2.133;0.000;2;3.799;69;2.742;98;6.462;255;0;0;0;0;
1620815488072;46;1901374;120;1.472;-2.133;0.000;2;3.799;69;2.742;98;6.462;255;0;0;0;0;
1620815488103;31;1901405;120;1.472;-2.133;0.000;2;3.799;69;2.742;98;6.462;255;0;0;0;0;
1620815488103;0;1901405;120;1.472;-2.133;0.000;2;3.799;69;2.742;98;6.462;255;0;0;0;0;
1620815488134;31;1901436;120;1.472;-2.133;0.000;2;3.799;69;2.742;98;6.462;255;0;0;0;0;
1620815488181;47;1901483;120;1.472;-2.133;0.000;2;3.799;69;2.742;98;6.462;255;0;0;0;0;
1620815488181;0;1901483;120;1.472;-2.133;0.000;2;3.799;69;2.742;98;6.462;255;0;0;0;0;
1620815488212;31;1901514;120;1.472;-2.133;0.000;2;3.799;69;2.742;98;6.462;255;0;0;0;0;
1620815488243;31;1901545;120;1.472;-2.133;0.000;2;3.799;69;2.742;98;6.462;255;0;0;0;0;
1620815488244;1;1901546;120;1.472;-2.133;0.000;2;3.799;69;2.742;98;6.462;255;0;0;0;0;
1620815488290;46;1901592;120;1.472;-2.133;0.000;2;3.805;69;2.737;98;6.462;255;0;0;0;0;
1620815488321;31;1901623;120;1.472;-2.133;0.000;2;3.805;69;2.737;98;6.462;255;0;0;0;0;
1620815488322;1;1901624;120;1.472;-2.133;0.000;2;3.805;69;2.737;98;6.462;255;0;0;0;0;
1620815488352;30;1901654;120;1.472;-2.133;0.000;2;3.805;69;2.737;98;6.462;255;0;0;0;0;
1620815488399;47;1901701;120;1.472;-2.133;0.000;2;3.805;69;2.742;98;6.462;255;0;0;0;0;
1620815488400;1;1901702;120;1.472;-2.133;0.000;2;3.805;69;2.742;98;6.462;255;0;0;0;0;
1620815488430;30;1901732;120;1.472;-2.133;0.000;2;3.805;69;2.742;98;6.462;255;0;0;0;0;
1620815488461;31;1901763;120;1.472;-2.133;0.000;2;3.805;69;2.742;98;6.462;255;0;0;0;0;
1620815488462;1;1901764;120;1.472;-2.133;0.000;2;3.805;69;2.742;98;6.462;255;0;0;0;0;
1620815488492;30;1901794;120;1.472;-2.133;0.000;2;3.805;69;2.742;98;6.462;255;0;0;0;0;
1620815488555;63;1901857;120;1.472;-2.133;0.000;2;3.805;69;2.742;98;6.462;255;0;0;0;0;
1620815488555;0;1901857;120;1.472;-2.133;0.000;2;3.805;69;2.742;98;6.462;255;0;0;0;0;
1620815488586;31;1901888;120;1.472;-2.133;0.000;2;3.805;69;2.737;98;6.462;255;0;0;0;0;
1620815488617;31;1901919;120;1.472;-2.133;0.000;2;3.805;69;2.737;98;6.462;255;0;0;0;0;
1620815488618;1;1901920;120;1.472;-2.133;0.000;2;3.805;69;2.737;98;6.462;255;0;0;0;0;
1620815488648;30;1901950;120;1.472;-2.132;0.000;2;3.805;69;2.737;98;6.462;255;0;0;0;0;
1620815488695;47;1901997;120;1.472;-2.132;0.000;2;3.805;69;2.737;98;6.462;255;0;0;0;0;
1620815488695;0;1901997;120;1.472;-2.132;0.000;2;3.805;69;2.737;98;6.462;255;0;0;0;0;
1620815488757;62;1902059;120;1.472;-2.131;0.000;2;3.805;69;2.737;98;6.462;255;0;0;0;0;
1620815488804;47;1902106;120;1.472;-2.131;0.000;2;3.810;69;2.737;98;6.462;255;0;0;0;0;
1620815488804;0;1902106;120;1.472;-2.131;0.000;2;3.810;69;2.737;98;6.462;255;0;0;0;0;
1620815488835;31;1902137;120;1.472;-2.131;0.000;2;3.810;69;2.737;98;6.462;255;0;0;0;0;
1620815488897;62;1902199;120;1.472;-2.130;0.000;2;3.810;69;2.737;98;6.462;255;0;0;0;0;
1620815488898;1;1902200;120;1.472;-2.130;0.000;2;3.810;69;2.737;98;6.462;255;0;0;0;0;
1620815488913;15;1902215;120;1.472;-2.130;0.000;2;3.805;69;2.737;98;6.462;255;0;0;0;0;
1620815488975;62;1902277;120;1.472;-2.130;0.000;2;3.805;69;2.737;98;6.462;255;0;0;0;0;
1620815488976;1;1902278;120;1.472;-2.130;0.000;2;3.805;69;2.737;98;6.462;255;0;0;0;0;
1620815489006;30;1902308;120;1.472;-2.130;0.000;2;3.805;69;2.742;98;6.462;255;0;0;0;0;
1620815489038;32;1902340;120;1.472;-2.130;0.000;2;3.805;69;2.742;98;6.462;255;0;0;0;0;
1620815489038;0;1902340;120;1.472;-2.130;0.000;2;3.805;69;2.742;98;6.462;255;0;0;0;0;
1620815489100;62;1902402;120;1.472;-2.130;0.000;2;3.805;69;2.742;98;6.462;255;0;0;0;0;
1620815489131;31;1902433;120;1.472;-2.130;0.000;2;3.805;69;2.742;98;6.462;255;0;0;0;0;
1620815489132;1;1902434;120;1.472;-2.130;0.000;2;3.805;69;2.742;98;6.462;255;0;0;0;0;
1620815489193;61;1902495;120;1.472;-2.130;0.000;2;3.805;69;2.742;98;6.462;255;0;0;0;0;
1620815489225;32;1902527;120;1.472;-2.130;0.000;2;3.805;69;2.742;98;6.462;255;0;0;0;0;
1620815489225;0;1902527;120;1.472;-2.130;0.000;2;3.805;69;2.742;98;6.462;255;0;0;0;0;
1620815489287;62;1902589;120;1.472;-2.130;0.000;2;3.810;69;2.742;98;6.462;255;0;0;0;0;
1620815489318;31;1902620;120;1.472;-2.130;0.000;2;3.810;69;2.742;98;6.462;255;0;0;0;0;
1620815489319;1;1902621;120;1.472;-2.130;0.000;2;3.810;69;2.742;98;6.462;255;0;0;0;0;
1620815489349;30;1902651;120;1.472;-2.130;0.000;2;3.810;69;2.742;98;6.462;255;0;0;0;0;
1620815489412;63;1902714;120;1.472;-2.130;0.000;2;3.805;69;2.742;98;6.462;255;0;0;0;0;
1620815489412;0;1902714;120;1.472;-2.130;0.000;2;3.805;69;2.742;98;6.462;255;0;0;0;0;
1620815489443;31;1902745;120;1.472;-2.130;0.000;2;3.805;69;2.742;98;6.462;255;0;0;0;0;
1620815489489;46;1902791;120;1.472;-2.130;0.000;2;3.805;69;2.742;98;6.462;255;0;0;0;0;
1620815489490;1;1902792;120;1.472;-2.130;0.000;2;3.805;69;2.742;98;6.462;255;0;0;0;0;
1620815489537;47;1902839;120;1.472;-2.130;0.000;2;3.805;69;2.742;98;6.462;255;0;0;0;0;
1620815489568;31;1902870;120;1.472;-2.130;0.000;2;3.805;69;2.742;98;6.462;255;0;0;0;0;
1620815489568;0;1902870;120;1.472;-2.130;0.000;2;3.805;69;2.742;98;6.462;255;0;0;0;0;
1620815489599;31;1902901;120;1.472;-2.130;0.000;2;3.805;69;2.742;98;6.462;255;0;0;0;0;
1620815489661;62;1902963;120;1.472;-2.130;0.000;2;3.805;69;2.742;98;6.462;255;0;0;0;0;
1620815489662;1;1902964;120;1.472;-2.130;0.000;2;3.805;69;2.742;98;6.462;255;0;0;0;0;
1620815489677;15;1902979;120;1.472;-2.130;0.000;2;3.799;69;2.737;98;6.462;255;0;0;0;0;
1620815489708;31;1903010;120;1.472;-2.130;0.000;2;3.799;69;2.737;98;6.462;255;0;0;0;0;
1620815489708;0;1903010;120;1.472;-2.130;0.000;2;3.799;69;2.737;98;6.462;255;0;0;0;0;
1620815489801;93;1903103;69;0.000;0.000;0.000;255;0;0;0;0;;;;;;;
1620815489801;0;1903103;98;7.507;0.000;0.000;255;0;0;0;0;;;;;;;
1620815489801;0;1903103;2;3.013;-5.494;0.000;255;0;0;0;0;;;;;;;
1620815489802;1;1903104;120;1.472;-2.131;0.000;2;3.799;69;2.737;98;6.462;255;0;0;0;0;
1620815489832;30;1903134;120;1.472;-2.131;0.000;2;3.799;69;2.737;98;6.462;255;0;0;0;0;
1620815489833;1;1903135;120;1.472;-2.131;0.000;2;3.799;69;2.737;98;6.462;255;0;0;0;0;
1620815489894;61;1903196;120;1.472;-2.131;0.000;2;3.799;69;2.737;98;6.462;255;0;0;0;0;
1620815489957;63;1903259;120;1.472;-2.131;0.000;2;3.802;69;2.737;98;6.462;255;0;0;0;0;
1620815489957;0;1903259;120;1.472;-2.131;0.000;2;3.802;69;2.737;98;6.462;255;0;0;0;0;
1620815489988;31;1903290;120;1.472;-2.131;0.000;2;3.802;69;2.737;98;6.462;255;0;0;0;0;
1620815490019;31;1903321;120;1.471;-2.132;0.000;2;3.799;69;2.737;98;6.465;255;0;0;0;0;
1620815490020;1;1903322;120;1.471;-2.132;0.000;2;3.799;69;2.737;98;6.465;255;0;0;0;0;
1620815490081;61;1903383;120;1.471;-2.132;0.000;2;3.799;69;2.737;98;6.465;255;0;0;0;0;
1620815490112;31;1903414;120;1.471;-2.132;0.000;2;3.799;69;2.737;98;6.465;255;0;0;0;0;
1620815490113;1;1903415;120;1.471;-2.132;0.000;2;3.799;69;2.737;98;6.465;255;0;0;0;0;
1620815490144;31;1903446;120;1.471;-2.133;0.000;2;3.799;69;2.742;98;6.462;255;0;0;0;0;
1620815490206;62;1903508;120;1.471;-2.133;0.000;2;3.799;69;2.742;98;6.462;255;0;0;0;0;
1620815490206;0;1903508;120;1.471;-2.133;0.000;2;3.799;69;2.742;98;6.462;255;0;0;0;0;
1620815490253;47;1903555;120;1.471;-2.133;0.000;2;3.799;69;2.742;98;6.462;255;0;0;0;0;
1620815490284;31;1903586;120;1.471;-2.133;0.000;2;3.799;69;2.742;98;6.462;255;0;0;0;0;
1620815490284;0;1903586;120;1.471;-2.133;0.000;2;3.799;69;2.742;98;6.462;255;0;0;0;0;
1620815490315;31;1903617;120;1.471;-2.133;0.000;2;3.799;69;2.742;98;6.462;255;0;0;0;0;
1620815490362;47;1903664;120;1.471;-2.133;0.000;2;3.799;69;2.742;98;6.462;255;0;0;0;0;
1620815490362;0;1903664;120;1.471;-2.133;0.000;2;3.799;69;2.742;98;6.462;255;0;0;0;0;
1620815490408;46;1903710;120;1.471;-2.133;0.000;2;3.802;69;2.737;98;6.462;255;0;0;0;0;
1620815490440;32;1903742;120;1.471;-2.133;0.000;2;3.802;69;2.737;98;6.462;255;0;0;0;0;
1620815490440;0;1903742;120;1.471;-2.133;0.000;2;3.802;69;2.737;98;6.462;255;0;0;0;0;
1620815490502;62;1903804;120;1.471;-2.133;0.000;2;3.802;69;2.737;98;6.462;255;0;0;0;0;
1620815490533;31;1903835;120;1.472;-2.133;0.000;2;3.805;69;2.737;98;6.462;255;0;0;0;0;
1620815490534;1;1903836;120;1.472;-2.133;0.000;2;3.805;69;2.737;98;6.462;255;0;0;0;0;
1620815490580;46;1903882;120;1.472;-2.133;0.000;2;3.805;69;2.737;98;6.462;255;0;0;0;0;
1620815490611;31;1903913;120;1.472;-2.133;0.000;2;3.805;69;2.737;98;6.462;255;0;0;0;0;
1620815490611;0;1903913;120;1.472;-2.133;0.000;2;3.805;69;2.737;98;6.462;255;0;0;0;0;
1620815490642;31;1903944;120;1.472;-2.132;0.000;2;3.805;69;2.737;98;6.462;255;0;0;0;0;
1620815490658;16;1903960;120;1.472;-2.132;0.000;2;3.805;69;2.737;98;6.462;255;0;0;0;0;
1620815490658;0;1903960;120;1.472;-2.132;0.000;2;3.805;69;2.737;98;6.462;255;0;0;0;0;
1620815490720;62;1904022;120;1.472;-2.132;0.000;2;3.805;69;2.737;98;6.462;255;0;0;0;0;
1620815490751;31;1904053;120;1.472;-2.132;0.000;2;3.805;69;2.737;98;6.462;255;0;0;0;0;
1620815490752;1;1904054;120;1.472;-2.132;0.000;2;3.805;69;2.737;98;6.462;255;0;0;0;0;
1620815490786;34;1904088;120;1.472;-2.132;0.000;2;3.805;69;2.742;98;6.462;255;0;0;0;0;
1620815490813;27;1904115;120;1.472;-2.132;0.000;2;3.805;69;2.742;98;6.462;255;0;0;0;0;
1620815490814;1;1904116;120;1.472;-2.132;0.000;2;3.805;69;2.742;98;6.462;255;0;0;0;0;
1620815490876;62;1904178;120;1.472;-2.132;0.000;2;3.805;69;2.742;98;6.462;255;0;0;0;0;
1620815490938;62;1904240;120;1.472;-2.131;0.000;2;3.805;69;2.742;98;6.462;255;0;0;0;0;
1620815490939;1;1904241;120;1.472;-2.131;0.000;2;3.805;69;2.742;98;6.462;255;0;0;0;0;
1620815490969;30;1904271;120;1.472;-2.131;0.000;2;3.805;69;2.737;98;6.462;255;0;0;0;0;
1620815491032;63;1904334;120;1.472;-2.131;0.000;2;3.805;69;2.737;98;6.462;255;0;0;0;0;
1620815491032;0;1904334;120;1.472;-2.131;0.000;2;3.805;69;2.737;98;6.462;255;0;0;0;0;
1620815491063;31;1904365;120;1.472;-2.131;0.000;2;3.805;69;2.742;98;6.462;255;0;0;0;0;
1620815491094;31;1904396;120;1.472;-2.131;0.000;2;3.805;69;2.742;98;6.462;255;0;0;0;0;
1620815491094;0;1904396;120;1.472;-2.131;0.000;2;3.805;69;2.742;98;6.462;255;0;0;0;0;
1620815491125;31;1904427;120;1.472;-2.131;0.000;2;3.805;69;2.742;98;6.462;255;0;0;0;0;
1620815491187;62;1904489;120;1.472;-2.131;0.000;2;3.805;69;2.742;98;6.462;255;0;0;0;0;
1620815491188;1;1904490;120;1.472;-2.131;0.000;2;3.805;69;2.742;98;6.462;255;0;0;0;0;
1620815491219;31;1904521;120;1.472;-2.131;0.000;2;3.802;69;2.737;98;6.462;255;0;0;0;0;
1620815491281;62;1904583;120;1.472;-2.131;0.000;2;3.802;69;2.737;98;6.462;255;0;0;0;0;
1620815491281;0;1904583;120;1.472;-2.131;0.000;2;3.802;69;2.737;98;6.462;255;0;0;0;0;
1620815491312;31;1904614;120;1.472;-2.131;0.000;2;3.805;69;2.737;98;6.462;255;0;0;0;0;
1620815491374;62;1904676;120;1.472;-2.131;0.000;2;3.805;69;2.737;98;6.462;255;0;0;0;0;
1620815491374;0;1904676;120;1.472;-2.131;0.000;2;3.805;69;2.737;98;6.462;255;0;0;0;0;
1620815491421;47;1904723;120;1.472;-2.131;0.000;2;3.799;69;2.742;98;6.462;255;0;0;0;0;
1620815491468;47;1904770;120;1.472;-2.131;0.000;2;3.799;69;2.742;98;6.462;255;0;0;0;0;
1620815491468;0;1904770;120;1.472;-2.131;0.000;2;3.799;69;2.742;98;6.462;255;0;0;0;0;
1620815491499;31;1904801;120;1.472;-2.131;0.000;2;3.799;69;2.742;98;6.462;255;0;0;0;0;
1620815491530;31;1904832;120;1.472;-2.132;0.000;2;3.799;69;2.742;98;6.462;255;0;0;0;0;
1620815491531;1;1904833;120;1.472;-2.132;0.000;2;3.799;69;2.742;98;6.462;255;0;0;0;0;
1620815491577;46;1904879;120;1.472;-2.132;0.000;2;3.799;69;2.742;98;6.462;255;0;0;0;0;
1620815491608;31;1904910;120;1.472;-2.132;0.000;2;3.799;69;2.742;98;6.462;255;0;0;0;0;
1620815491608;0;1904910;120;1.472;-2.132;0.000;2;3.799;69;2.742;98;6.462;255;0;0;0;0;
1620815491639;31;1904941;120;1.472;-2.133;0.000;2;3.799;69;2.742;98;6.462;255;0;0;0;0;
1620815491686;47;1904988;120;1.472;-2.133;0.000;2;3.799;69;2.742;98;6.462;255;0;0;0;0;
1620815491686;0;1904988;120;1.472;-2.133;0.000;2;3.799;69;2.742;98;6.462;255;0;0;0;0;
1620815491717;31;1905019;120;1.472;-2.133;0.000;2;3.799;69;2.742;98;6.462;255;0;0;0;0;
1620815491748;31;1905050;120;1.472;-2.133;0.000;2;3.799;69;2.742;98;6.462;255;0;0;0;0;
1620815491749;1;1905051;120;1.472;-2.133;0.000;2;3.799;69;2.742;98;6.462;255;0;0;0;0;
1620815491779;30;1905081;120;1.472;-2.133;0.000;2;3.805;69;2.737;98;6.465;255;0;0;0;0;
1620815491842;63;1905144;120;1.472;-2.133;0.000;2;3.805;69;2.737;98;6.465;255;0;0;0;0;
1620815491842;0;1905144;120;1.472;-2.133;0.000;2;3.805;69;2.737;98;6.465;255;0;0;0;0;
1620815491904;62;1905206;120;1.472;-2.134;0.000;2;3.805;69;2.737;98;6.465;255;0;0;0;0;
1620815491935;31;1905237;120;1.472;-2.134;0.000;2;3.805;69;2.737;98;6.465;255;0;0;0;0;
1620815491936;1;1905238;120;1.472;-2.134;0.000;2;3.805;69;2.737;98;6.465;255;0;0;0;0;
1620815491966;30;1905268;120;1.472;-2.134;0.000;2;3.805;69;2.737;98;6.465;255;0;0;0;0;
1620815492013;47;1905315;120;1.472;-2.134;0.000;2;3.799;69;2.742;98;6.462;255;0;0;0;0;
1620815492013;0;1905315;120;1.472;-2.134;0.000;2;3.799;69;2.742;98;6.462;255;0;0;0;0;
1620815492044;31;1905346;120;1.472;-2.134;0.000;2;3.799;69;2.742;98;6.462;255;0;0;0;0;
1620815492075;31;1905377;120;1.472;-2.134;0.000;2;3.799;69;2.742;98;6.462;255;0;0;0;0;
1620815492076;1;1905378;120;1.472;-2.134;0.000;2;3.799;69;2.742;98;6.462;255;0;0;0;0;
1620815492138;62;1905440;120;1.472;-2.134;0.000;2;3.799;69;2.742;98;6.462;255;0;0;0;0;
1620815492169;31;1905471;120;1.472;-2.133;0.000;2;3.805;69;2.742;98;6.462;255;0;0;0;0;
1620815492169;0;1905471;120;1.472;-2.133;0.000;2;3.805;69;2.742;98;6.462;255;0;0;0;0;
1620815492200;31;1905502;120;1.472;-2.133;0.000;2;3.805;69;2.742;98;6.462;255;0;0;0;0;
1620815492231;31;1905533;120;1.472;-2.133;0.000;2;3.805;69;2.742;98;6.462;255;0;0;0;0;
1620815492232;1;1905534;120;1.472;-2.133;0.000;2;3.805;69;2.742;98;6.462;255;0;0;0;0;
1620815492293;61;1905595;120;1.472;-2.134;0.000;2;3.805;69;2.742;98;6.462;255;0;0;0;0;
1620815492325;32;1905627;120;1.472;-2.134;0.000;2;3.799;69;2.737;98;6.462;255;0;0;0;0;
1620815492326;1;1905628;120;1.472;-2.134;0.000;2;3.799;69;2.737;98;6.462;255;0;0;0;0;
1620815492387;61;1905689;120;1.472;-2.134;0.000;2;3.799;69;2.737;98;6.462;255;0;0;0;0;
1620815492418;31;1905720;120;1.472;-2.133;0.000;2;3.805;69;2.737;98;6.462;255;0;0;0;0;
1620815492418;0;1905720;120;1.472;-2.133;0.000;2;3.805;69;2.737;98;6.462;255;0;0;0;0;
1620815492480;62;1905782;120;1.472;-2.133;0.000;2;3.805;69;2.737;98;6.462;255;0;0;0;0;
1620815492511;31;1905813;120;1.472;-2.133;0.000;2;3.805;69;2.737;98;6.462;255;0;0;0;0;
1620815492512;1;1905814;120;1.472;-2.133;0.000;2;3.805;69;2.737;98;6.462;255;0;0;0;0;
1620815492558;46;1905860;120;1.472;-2.133;0.000;2;3.805;69;2.737;98;6.462;255;0;0;0;0;
1620815492589;31;1905891;120;1.472;-2.133;0.000;2;3.805;69;2.737;98;6.462;255;0;0;0;0;
1620815492590;1;1905892;120;1.472;-2.133;0.000;2;3.805;69;2.737;98;6.462;255;0;0;0;0;
1620815492620;30;1905922;120;1.472;-2.133;0.000;2;3.805;69;2.737;98;6.462;255;0;0;0;0;
1620815492667;47;1905969;120;1.472;-2.132;0.000;2;3.805;69;2.742;98;6.462;255;0;0;0;0;
1620815492667;0;1905969;120;1.472;-2.132;0.000;2;3.805;69;2.742;98;6.462;255;0;0;0;0;
1620815492713;46;1906015;120;1.472;-2.132;0.000;2;3.805;69;2.742;98;6.462;255;0;0;0;0;
1620815492745;32;1906047;120;1.472;-2.132;0.000;2;3.805;69;2.742;98;6.462;255;0;0;0;0;
1620815492745;0;1906047;120;1.472;-2.132;0.000;2;3.805;69;2.742;98;6.462;255;0;0;0;0;
1620815492807;62;1906109;120;1.472;-2.132;0.000;2;3.802;69;2.737;98;6.462;255;0;0;0;0;
1620815492854;47;1906156;120;1.472;-2.132;0.000;2;3.802;69;2.737;98;6.462;255;0;0;0;0;
1620815492854;0;1906156;120;1.472;-2.132;0.000;2;3.802;69;2.737;98;6.462;255;0;0;0;0;
1620815492885;31;1906187;120;1.472;-2.132;0.000;2;3.802;69;2.737;98;6.462;255;0;0;0;0;
1620815492947;62;1906249;120;1.472;-2.131;0.000;2;3.805;69;2.742;98;6.462;255;0;0;0;0;
1620815492948;1;1906250;120;1.472;-2.131;0.000;2;3.805;69;2.742;98;6.462;255;0;0;0;0;
1620815492978;30;1906280;120;1.472;-2.131;0.000;2;3.805;69;2.742;98;6.462;255;0;0;0;0;
1620815493009;31;1906311;120;1.472;-2.131;0.000;2;3.805;69;2.742;98;6.462;255;0;0;0;0;
1620815493009;0;1906311;120;1.472;-2.131;0.000;2;3.805;69;2.742;98;6.462;255;0;0;0;0;
1620815493071;62;1906373;120;1.472;-2.131;0.000;2;3.805;69;2.742;98;6.462;255;0;0;0;0;
1620815493134;63;1906436;120;1.472;-2.131;0.000;2;3.805;69;2.742;98;6.462;255;0;0;0;0;
1620815493134;0;1906436;120;1.472;-2.131;0.000;2;3.805;69;2.742;98;6.462;255;0;0;0;0;
1620815493165;31;1906467;120;1.471;-2.131;0.000;2;3.805;69;2.737;98;6.465;255;0;0;0;0;
1620815493211;46;1906513;120;1.471;-2.131;0.000;2;3.805;69;2.737;98;6.465;255;0;0;0;0;
1620815493212;1;1906514;120;1.471;-2.131;0.000;2;3.805;69;2.737;98;6.465;255;0;0;0;0;
1620815493243;31;1906545;120;1.471;-2.131;0.000;2;3.805;69;2.737;98;6.465;255;0;0;0;0;
1620815493274;31;1906576;120;1.471;-2.131;0.000;2;3.802;69;2.742;98;6.462;255;0;0;0;0;
1620815493274;0;1906576;120;1.471;-2.131;0.000;2;3.802;69;2.742;98;6.462;255;0;0;0;0;
1620815493305;31;1906607;120;1.471;-2.131;0.000;2;3.802;69;2.742;98;6.462;255;0;0;0;0;
1620815493367;62;1906669;120;1.471;-2.131;0.000;2;3.802;69;2.742;98;6.462;255;0;0;0;0;
1620815493368;1;1906670;120;1.471;-2.131;0.000;2;3.802;69;2.742;98;6.462;255;0;0;0;0;
1620815493398;30;1906700;120;1.471;-2.132;0.000;2;3.805;69;2.737;98;6.465;255;0;0;0;0;
1620815493430;32;1906732;120;1.471;-2.132;0.000;2;3.805;69;2.737;98;6.465;255;0;0;0;0;
1620815493430;0;1906732;120;1.471;-2.132;0.000;2;3.805;69;2.737;98;6.465;255;0;0;0;0;
1620815493492;62;1906794;120;1.471;-2.132;0.000;2;3.805;69;2.737;98;6.465;255;0;0;0;0;
1620815493554;62;1906856;120;1.471;-2.132;0.000;2;3.805;69;2.742;98;6.462;255;0;0;0;0;
1620815493555;1;1906857;120;1.471;-2.132;0.000;2;3.805;69;2.742;98;6.462;255;0;0;0;0;
1620815493586;31;1906888;120;1.471;-2.132;0.000;2;3.805;69;2.742;98;6.462;255;0;0;0;0;
1620815493616;30;1906918;120;1.471;-2.132;0.000;2;3.805;69;2.742;98;6.462;255;0;0;0;0;
1620815493617;1;1906919;120;1.471;-2.132;0.000;2;3.805;69;2.742;98;6.462;255;0;0;0;0;
1620815493679;62;1906981;120;1.472;-2.132;0.000;2;3.805;69;2.742;98;6.462;255;0;0;0;0;
1620815493710;31;1907012;120;1.472;-2.132;0.000;2;3.805;69;2.742;98;6.462;255;0;0;0;0;
1620815493710;0;1907012;120;1.472;-2.132;0.000;2;3.805;69;2.742;98;6.462;255;0;0;0;0;
1620815493757;47;1907059;120;1.472;-2.132;0.000;2;3.805;69;2.742;98;6.462;255;0;0;0;0;
1620815493819;62;1907121;120;1.472;-2.132;0.000;2;3.805;69;2.742;98;6.462;255;0;0;0;0;
1620815493819;0;1907121;120;1.472;-2.132;0.000;2;3.805;69;2.742;98;6.462;255;0;0;0;0;
1620815493835;16;1907137;120;1.472;-2.132;0.000;2;3.805;69;2.742;98;6.462;255;0;0;0;0;
1620815493897;62;1907199;120;1.472;-2.132;0.000;2;3.805;69;2.742;98;6.462;255;0;0;0;0;
1620815493897;0;1907199;120;1.472;-2.132;0.000;2;3.805;69;2.742;98;6.462;255;0;0;0;0;
1620815493928;31;1907230;120;1.472;-2.132;0.000;2;3.805;69;2.737;98;6.462;255;0;0;0;0;
1620815493959;31;1907261;120;1.472;-2.132;0.000;2;3.805;69;2.737;98;6.462;255;0;0;0;0;
1620815493960;1;1907262;120;1.472;-2.132;0.000;2;3.805;69;2.737;98;6.462;255;0;0;0;0;
1620815494021;61;1907323;120;1.472;-2.131;0.000;2;3.805;69;2.737;98;6.462;255;0;0;0;0;
1620815494053;32;1907355;120;1.472;-2.131;0.000;2;3.805;69;2.737;98;6.462;255;0;0;0;0;
1620815494053;0;1907355;120;1.472;-2.131;0.000;2;3.805;69;2.737;98;6.462;255;0;0;0;0;
1620815494084;31;1907386;120;1.472;-2.131;0.000;2;3.805;69;2.737;98;6.462;255;0;0;0;0;
1620815494115;31;1907417;120;1.472;-2.131;0.000;2;3.805;69;2.737;98;6.462;255;0;0;0;0;
1620815494115;0;1907417;120;1.472;-2.131;0.000;2;3.805;69;2.737;98;6.462;255;0;0;0;0;
1620815494162;47;1907464;120;1.472;-2.131;0.000;2;3.805;69;2.737;98;6.462;255;0;0;0;0;
1620815494224;62;1907526;120;1.472;-2.131;0.000;2;3.805;69;2.737;98;6.462;255;0;0;0;0;
1620815494224;0;1907526;120;1.472;-2.131;0.000;2;3.805;69;2.737;98;6.462;255;0;0;0;0;
1620815494255;31;1907557;120;1.472;-2.131;0.000;2;3.805;69;2.737;98;6.462;255;0;0;0;0;
1620815494302;47;1907604;120;1.472;-2.131;0.000;2;3.802;69;2.737;98;6.462;255;0;0;0;0;
1620815494302;0;1907604;120;1.472;-2.131;0.000;2;3.802;69;2.737;98;6.462;255;0;0;0;0;
1620815494333;31;1907635;120;1.472;-2.131;0.000;2;3.802;69;2.737;98;6.462;255;0;0;0;0;
1620815494364;31;1907666;120;1.472;-2.131;0.000;2;3.802;69;2.737;98;6.462;255;0;0;0;0;
1620815494365;1;1907667;120;1.472;-2.131;0.000;2;3.802;69;2.737;98;6.462;255;0;0;0;0;
1620815494395;30;1907697;120;1.472;-2.131;0.000;2;3.802;69;2.737;98;6.462;255;0;0;0;0;
1620815494458;63;1907760;120;1.472;-2.131;0.000;2;3.802;69;2.737;98;6.462;255;0;0;0;0;
1620815494458;0;1907760;120;1.472;-2.131;0.000;2;3.802;69;2.737;98;6.462;255;0;0;0;0;
1620815494489;31;1907791;120;1.472;-2.131;0.000;2;3.805;69;2.737;98;6.462;255;0;0;0;0;
1620815494520;31;1907822;120;1.472;-2.131;0.000;2;3.805;69;2.737;98;6.462;255;0;0;0;0;
1620815494520;0;1907822;120;1.472;-2.131;0.000;2;3.805;69;2.737;98;6.462;255;0;0;0;0;
1620815494582;62;1907884;120;1.472;-2.131;0.000;2;3.805;69;2.737;98;6.462;255;0;0;0;0;
1620815494629;47;1907931;120;1.472;-2.131;0.000;2;3.802;69;2.737;98;6.462;255;0;0;0;0;
1620815494629;0;1907931;120;1.472;-2.131;0.000;2;3.802;69;2.737;98;6.462;255;0;0;0;0;
1620815494660;31;1907962;120;1.472;-2.131;0.000;2;3.807;69;2.737;98;6.462;255;0;0;0;0;
1620815494691;31;1907993;120;1.472;-2.131;0.000;2;3.807;69;2.737;98;6.462;255;0;0;0;0;
1620815494692;1;1907994;120;1.472;-2.131;0.000;2;3.807;69;2.737;98;6.462;255;0;0;0;0;
1620815494738;46;1908040;120;1.472;-2.131;0.000;2;3.807;69;2.737;98;6.462;255;0;0;0;0;
1620815494800;62;1908102;120;1.472;-2.131;0.000;2;3.807;69;2.737;98;6.462;255;0;0;0;0;
1620815494801;1;1908103;120;1.472;-2.131;0.000;2;3.807;69;2.737;98;6.462;255;0;0;0;0;
1620815494816;15;1908118;120;1.472;-2.131;0.000;2;3.807;69;2.737;98;6.462;255;0;0;0;0;
1620815494879;63;1908181;120;1.472;-2.131;0.000;2;3.802;69;2.742;98;6.462;255;0;0;0;0;
1620815494879;0;1908181;120;1.472;-2.131;0.000;2;3.802;69;2.742;98;6.462;255;0;0;0;0;
1620815494909;30;1908211;120;1.472;-2.131;0.000;2;3.805;69;2.742;98;6.462;255;0;0;0;0;
1620815494956;47;1908258;120;1.472;-2.131;0.000;2;3.805;69;2.742;98;6.462;255;0;0;0;0;
1620815494957;1;1908259;120;1.472;-2.131;0.000;2;3.805;69;2.742;98;6.462;255;0;0;0;0;
1620815494987;30;1908289;120;1.472;-2.131;0.000;2;3.805;69;2.742;98;6.462;255;0;0;0;0;
1620815495018;31;1908320;120;1.472;-2.131;0.000;2;3.805;69;2.742;98;6.462;255;0;0;0;0;
1620815495019;1;1908321;120;1.472;-2.131;0.000;2;3.805;69;2.742;98;6.462;255;0;0;0;0;
1620815495050;31;1908352;120;1.472;-2.131;0.000;2;3.805;69;2.737;98;6.462;255;0;0;0;0;
