Timestamp;X;Y;ID
1620632898.1392403;458.0;15.0;120
1620632904.6036024;477.0;0.0;120
1620632913.339585;496.0;0.0;120
1620632913.339585;499.0;0.0;120
1620632913.339585;499.0;0.0;120
1620632931.6781466;499.0;0.0;120
1620632937.903544;499.0;0.0;120
1620632944.1724894;499.0;0.0;120
1620632950.4502382;499.0;0.0;120
1620632956.5188634;499.0;0.0;120
1620632962.662409;499.0;0.0;120
1620632968.7469778;499.0;0.0;120
1620632974.862179;479.0;19.0;120
1620632980.9677954;459.0;38.0;120
1620632987.23793;439.0;57.0;120
1620632993.460577;419.0;76.0;120
1620632999.7112856;399.0;95.0;120
1620633005.8895228;379.0;114.0;120
1620633012.1606193;359.0;133.0;120
1620633018.3127182;339.0;152.0;120
1620633024.6234286;319.0;171.0;120
1620633030.767558;299.0;187.0;120
1620633037.053107;279.0;183.0;120
1620633043.5047114;259.0;181.0;120
1620633049.795773;239.0;179.0;120
1620633056.030799;232.0;180.0;120
1620633062.3813982;234.0;180.0;120
1620633068.555595;237.0;181.0;120
1620633074.851198;237.0;182.0;120
1620633081.0325;240.0;183.0;120
1620633087.262412;237.0;183.0;120
1620633093.482;235.0;184.0;120
1620633099.6494653;247.0;185.0;120
1620633105.9241326;254.0;186.0;120
1620633112.1685135;273.0;166.0;120
1620633118.4439025;255.0;185.0;120
1620633124.813347;274.0;165.0;120
1620633131.0791054;258.0;184.0;120
1620633137.3453307;263.0;189.0;120
1620633143.5114646;270.0;195.0;120
1620633149.7915626;271.0;195.0;120
1620633156.4081511;267.0;191.0;120
1620633162.987891;286.0;171.0;120
1620633169.4508672;305.0;151.0;120
1620633176.0929558;324.0;131.0;120
1620633182.8448267;343.0;111.0;120
1620633189.562602;362.0;91.0;120
1620633196.0853813;381.0;71.0;120
1620633202.7115378;400.0;51.0;120
1620633209.1457777;419.0;31.0;120
1620633215.7430434;399.0;50.0;120
1620633222.1322381;418.0;30.0;120
1620633228.724601;437.0;10.0;120
1620633235.1825514;417.0;29.0;120
1620633241.7472954;397.0;48.0;120
1620633247.9888725;377.0;67.0;120
1620633254.4731767;357.0;86.0;120
1620633260.8188639;337.0;105.0;120
1620633267.2562532;317.0;124.0;120
1620633273.6983895;297.0;143.0;120
1620633280.240294;277.0;162.0;120
1620633286.6363654;257.0;181.0;120
1620633293.1835048;237.0;200.0;120
1620633299.6081035;231.0;219.0;120
1620633306.0555673;240.0;238.0;120
1620633312.4926972;253.0;257.0;120
1620633318.9998472;255.0;276.0;120
1620633325.6170402;255.0;286.0;120
1620633332.1682284;258.0;274.0;120
1620633338.5827577;258.0;270.0;120
1620633345.0981338;264.0;270.0;120
1620633351.5079854;272.0;264.0;120
1620633358.0016901;291.0;244.0;120
1620633364.6348002;310.0;224.0;120
1620633371.3818324;329.0;204.0;120
1620633377.913669;348.0;184.0;120
1620633384.3848102;328.0;203.0;120
1620633390.8625653;347.0;183.0;120
1620633397.4125187;366.0;163.0;120
1620633403.876659;346.0;182.0;120
1620633410.502099;326.0;201.0;120
1620633416.9380639;306.0;220.0;120
1620633423.4418013;286.0;226.0;120
1620633429.919938;305.0;206.0;120
1620633436.4464538;324.0;186.0;120
1620633442.897919;343.0;166.0;120
1620633449.5469782;362.0;146.0;120
1620633456.1103334;381.0;126.0;120
1620633462.864842;361.0;145.0;120
1620633469.288592;341.0;164.0;120
1620633475.9344049;321.0;183.0;120
1620633482.5127923;301.0;202.0;120
1620633489.3149598;281.0;221.0;120
1620633495.779144;261.0;219.0;120
1620633502.4158561;241.0;214.0;120
1620633508.903682;221.0;218.0;120
1620633515.5067039;213.0;220.0;120
1620633522.0649085;220.0;217.0;120
1620633528.6749163;224.0;214.0;120
1620633535.1630595;226.0;217.0;120
1620633541.767685;222.0;215.0;120
1620633548.2418823;202.0;220.0;120
1620633554.8921247;212.0;219.0;120
1620633561.4455707;212.0;217.0;120
1620633568.0567229;192.0;220.0;120
