Timestamp;X;Y;ID
1620807453.6437705;233.0;330.0;120
1620807454.8930511;252.0;334.0;120
1620807456.1605148;257.0;336.0;120
1620807457.3941042;257.0;336.0;120
1620807458.6221752;257.0;336.0;120
1620807459.8268797;257.0;336.0;120
1620807461.0504043;257.0;336.0;120
1620807462.3068588;257.0;336.0;120
1620807463.5700316;257.0;335.0;120
1620807464.7812023;257.0;335.0;120
1620807466.0511656;257.0;336.0;120
1620807467.3180017;257.0;336.0;120
1620807468.589435;257.0;335.0;120
1620807469.8456583;257.0;335.0;120
1620807471.228201;257.0;336.0;120
1620807472.4621463;257.0;336.0;120
1620807473.6649284;257.0;336.0;120
1620807475.0198078;257.0;336.0;120
1620807476.281365;257.0;336.0;120
1620807477.540796;257.0;336.0;120
